<svg xmlns="http://www.w3.org/2000/svg" width="40" height="40" viewBox="0 0 40 40">
  <path id="facebook-rect" d="M7.3,0A7.288,7.288,0,0,0,0,7.3V32.7A7.288,7.288,0,0,0,7.3,40H21.066V24.362H16.931v-5.63h4.134v-4.81c0-3.779,2.443-7.249,8.071-7.249a34.1,34.1,0,0,1,3.963.219l-.132,5.258s-1.719-.017-3.593-.017c-2.03,0-2.354.936-2.354,2.488v4.111h6.11l-.267,5.63H27.02V40H32.7A7.288,7.288,0,0,0,40,32.7V7.3A7.288,7.288,0,0,0,32.7,0Z" fill="#1f5492"/>
</svg>
