<svg id="Group_133" data-name="Group 133" xmlns="http://www.w3.org/2000/svg" width="38.111" height="39.523" viewBox="0 0 38.111 39.523">
  <g id="map-marker-line" transform="translate(7.649)">
    <path id="Path_107" data-name="Path 107" d="M17.816,6.72a5.652,5.652,0,0,0-5.546,5.752,5.652,5.652,0,0,0,5.546,5.752,5.652,5.652,0,0,0,5.546-5.752A5.652,5.652,0,0,0,17.816,6.72Zm0,9.5a3.679,3.679,0,0,1-3.61-3.744,3.612,3.612,0,1,1,3.61,3.734Z" transform="translate(-6.414 -1.982)" fill="#fff"/>
    <path id="Path_108" data-name="Path 108" d="M17.622,2A11.627,11.627,0,0,0,6.22,13.774c0,4.688,2.536,8.612,4.394,11.473l.339.522A99.669,99.669,0,0,0,16.9,33.8l.736.893.736-.893a99.88,99.88,0,0,0,5.943-8.03l.339-.532c1.849-2.861,4.385-6.775,4.385-11.463A11.626,11.626,0,0,0,17.622,2Zm5.411,22.083-.348.532a81.389,81.389,0,0,1-5.062,6.926c-1.142-1.435-3.4-4.336-5.062-6.926l-.339-.532c-1.713-2.65-4.065-6.274-4.065-10.349a9.646,9.646,0,0,1,9.466-9.817,9.646,9.646,0,0,1,9.466,9.817c0,4.115-2.342,7.739-4.055,10.349Z" transform="translate(-6.22 -2)" fill="#fff"/>
  </g>
  <path id="map" d="M37.844,4.758,26.024,3.332,14.17,4.773,3.146,3.423a3.376,3.376,0,0,0-1.391.112c-.4.13-.63.332-.63.547V15.749c0,.367.567.689,1.386.791l11.657,1.427,11.859-1.441L37.22,17.877a3.372,3.372,0,0,0,1.388-.114c.4-.13.628-.332.628-.546V5.55c0-.368-.57-.692-1.392-.792ZM12.8,16.66,3.666,15.542V4.626L12.8,5.744Zm11.958-1.118-9.418,1.144V5.769l9.418-1.144ZM36.7,16.675l-9.4-1.134V4.624l9.4,1.134Z" transform="translate(-1.125 21.557)" fill="#fff"/>
</svg>
