<svg xmlns="http://www.w3.org/2000/svg" width="76" height="76" viewBox="0 0 76 76">
  <g id="Group_1782" data-name="Group 1782" transform="translate(-858 -440)">
    <rect id="Rectangle_65" data-name="Rectangle 65" width="76" height="76" transform="translate(858 440)" fill="#37d6ad"/>
    <path id="arrow-ios-back-outline" d="M20.745,28.5a1.5,1.5,0,0,1-1.17-.555l-7.245-9a1.5,1.5,0,0,1,0-1.9l7.5-9a1.5,1.5,0,1,1,2.31,1.92L15.435,18l6.48,8.04a1.5,1.5,0,0,1-1.17,2.46Z" transform="translate(878.762 460.023)" fill="#fff"/>
  </g>
</svg>
