<svg xmlns="http://www.w3.org/2000/svg" width="676.591" height="427.06" viewBox="0 0 676.591 427.06">
  <g id="_1601.m10.i310.n007.P.c20.322015064_School_building._Vector_flat_education_concept_Converted_" data-name="1601.m10.i310.n007.P.c20.322015064 School building. Vector flat education concept [Converted]" transform="translate(-135.936 -42.48)">
    <rect id="Rectangle_724" data-name="Rectangle 724" width="72.851" height="126.257" transform="translate(394.886 202.516)" fill="#bdf3ff"/>
    <rect id="Rectangle_729" data-name="Rectangle 729" width="68.88" height="178.724" transform="translate(576.044 150.069)" fill="#bdf3ff"/>
    <rect id="Rectangle_730" data-name="Rectangle 730" width="68.88" height="178.724" transform="translate(493.654 150.069)" fill="#bdf3ff"/>
    <path id="Path_1564" data-name="Path 1564" d="M266.838,253.568h0c1.228,0,2.225-1.318,2.233-2.952V123.782c-.009-1.633-1.006-2.952-2.233-2.952h0c-1.225,0-2.218,1.321-2.218,2.952V250.616C264.62,252.246,265.613,253.568,266.838,253.568Z" transform="translate(166.699 -15.695)" fill="#bdf3ff"/>
    <rect id="Rectangle_731" data-name="Rectangle 731" width="674.117" height="40.125" transform="translate(138.41 429.415)" fill="#8bc06b"/>
    <rect id="Rectangle_732" data-name="Rectangle 732" width="674.117" height="10.836" transform="translate(138.41 425.018)" fill="#606957"/>
    <rect id="Rectangle_733" data-name="Rectangle 733" width="499.643" height="289.955" transform="translate(220.862 134.857)" fill="#d49078"/>
    <rect id="Rectangle_734" data-name="Rectangle 734" width="183.469" height="180.768" transform="translate(533.934 201.587)" fill="#333b4e"/>
    <g id="Group_1191" data-name="Group 1191" transform="translate(533.283 198.161)" opacity="0.25">
      <path id="Path_1566" data-name="Path 1566" d="M409.01,224.81H415.8L435.1,119.4H428.3Z" transform="translate(-287.023 -67.304)" fill="#90f7d3"/>
      <path id="Path_1567" data-name="Path 1567" d="M402.27,225.714h2.745L424.992,118.55h-2.745Z" transform="translate(-290.737 -68.208)" fill="#90f7d3"/>
      <path id="Path_1568" data-name="Path 1568" d="M389.76,198.67h9.1l6.018-28.38h-9.089Z" transform="translate(-297.63 -13.155)" fill="#90f7d3"/>
      <path id="Path_1569" data-name="Path 1569" d="M380.74,198.915h3.676l6.592-28.855h-3.676Z" transform="translate(-302.6 -13.4)" fill="#90f7d3"/>
      <path id="Path_1570" data-name="Path 1570" d="M433.77,217.917h9.1l12.408-67.6h-9.089Z" transform="translate(-273.38 -34.404)" fill="#90f7d3"/>
      <path id="Path_1571" data-name="Path 1571" d="M424.75,218.5h3.676l13.091-68.732H437.84Z" transform="translate(-278.35 -34.989)" fill="#90f7d3"/>
      <path id="Path_1572" data-name="Path 1572" d="M385.7,223.424h6.08L409.043,118.2h-6.08Z" transform="translate(-299.867 -68.581)" fill="#90f7d3"/>
      <path id="Path_1573" data-name="Path 1573" d="M379.67,224.329h2.451L399.988,117.35h-2.451Z" transform="translate(-303.19 -69.485)" fill="#90f7d3"/>
      <path id="Path_1574" data-name="Path 1574" d="M358.77,223.481h5.94L381.57,145.13h-5.94Z" transform="translate(-314.706 -39.926)" fill="#90f7d3"/>
      <path id="Path_1575" data-name="Path 1575" d="M352.88,224.161h2.4l17.449-79.672h-2.4Z" transform="translate(-317.951 -40.607)" fill="#90f7d3"/>
      <path id="Path_1576" data-name="Path 1576" d="M431.81,206.92h6.561L457,95.07h-6.545Z" transform="translate(-274.46 -93.192)" fill="#90f7d3"/>
      <path id="Path_1577" data-name="Path 1577" d="M425.31,207.888h2.652L447.241,94.16h-2.652Z" transform="translate(-278.041 -94.16)" fill="#90f7d3"/>
      <path id="Path_1578" data-name="Path 1578" d="M393.627,144.317l9.167-48.9h-6.158l-9.167,48.9Z" transform="translate(-298.892 -92.819)" fill="#90f7d3"/>
      <path id="Path_1579" data-name="Path 1579" d="M383.942,145.126l9.632-50.466h-2.482l-9.632,50.466Z" transform="translate(-302.203 -93.628)" fill="#90f7d3"/>
      <path id="Path_1580" data-name="Path 1580" d="M369.754,172.836l10.19-54.986H373.1L362.93,172.836Z" transform="translate(-312.414 -68.953)" fill="#90f7d3"/>
      <path id="Path_1581" data-name="Path 1581" d="M359.026,173.751l10.686-56.761h-2.761l-10.7,56.761Z" transform="translate(-316.094 -69.868)" fill="#90f7d3"/>
      <path id="Path_1582" data-name="Path 1582" d="M370.7,95.33l-8.329,44.707h8.872l8.329-44.707Z" transform="translate(-312.722 -92.915)" fill="#90f7d3"/>
      <path id="Path_1583" data-name="Path 1583" d="M362.174,95.33l-8.484,44.707h3.6l8.469-44.707Z" transform="translate(-317.505 -92.915)" fill="#90f7d3"/>
      <path id="Path_1584" data-name="Path 1584" d="M336.25,223.481h5.94l16.86-78.351h-5.925Z" transform="translate(-327.115 -39.926)" fill="#90f7d3"/>
      <path id="Path_1585" data-name="Path 1585" d="M330.36,224.161h2.4l17.449-79.672h-2.389Z" transform="translate(-330.36 -40.607)" fill="#90f7d3"/>
      <path id="Path_1586" data-name="Path 1586" d="M347.234,171.2l10.19-49.867H350.6L340.41,171.2Z" transform="translate(-324.822 -65.25)" fill="#90f7d3"/>
      <path id="Path_1587" data-name="Path 1587" d="M336.5,172.016l10.686-51.456h-2.761L333.74,172.016Z" transform="translate(-328.497 -66.07)" fill="#90f7d3"/>
      <path id="Path_1588" data-name="Path 1588" d="M347.925,95.33l-8.2,52.757h8.748l8.22-52.757Z" transform="translate(-325.202 -92.915)" fill="#90f7d3"/>
      <path id="Path_1589" data-name="Path 1589" d="M339.524,95.33l-8.344,52.757h3.536l8.344-52.757Z" transform="translate(-329.908 -92.915)" fill="#90f7d3"/>
      <path id="Path_1590" data-name="Path 1590" d="M421.028,95.33l-8.158,47.927h8.686l8.158-47.927Z" transform="translate(-284.896 -92.915)" fill="#90f7d3"/>
      <path id="Path_1591" data-name="Path 1591" d="M412.678,95.33l-8.3,47.927H407.9l8.3-47.927Z" transform="translate(-289.574 -92.915)" fill="#90f7d3"/>
    </g>
    <rect id="Rectangle_735" data-name="Rectangle 735" width="38.403" height="6.192" transform="translate(681.358 250.236)" fill="#d49078"/>
    <rect id="Rectangle_736" data-name="Rectangle 736" width="69.92" height="6.192" transform="translate(646.739 309.763)" fill="#d49078"/>
    <rect id="Rectangle_737" data-name="Rectangle 737" width="114.48" height="6.192" transform="translate(566.335 244.044)" fill="#d49078"/>
    <rect id="Rectangle_738" data-name="Rectangle 738" width="41.365" height="6.192" transform="translate(605.622 292.074)" fill="#d49078"/>
    <rect id="Rectangle_739" data-name="Rectangle 739" width="27.872" height="6.192" transform="translate(590.112 351.044)" fill="#d49078"/>
    <rect id="Rectangle_740" data-name="Rectangle 740" width="34.758" height="6.192" transform="translate(530.661 340.414)" fill="#d49078"/>
    <rect id="Rectangle_741" data-name="Rectangle 741" width="69.206" height="6.192" transform="translate(536.416 298.948)" fill="#d49078"/>
    <rect id="Rectangle_742" data-name="Rectangle 742" width="34.758" height="6.192" transform="translate(532.213 251.268)" fill="#d49078"/>
    <rect id="Rectangle_743" data-name="Rectangle 743" width="150.246" height="6.192" transform="translate(566.056 351.353)" fill="#d49078"/>
    <rect id="Rectangle_744" data-name="Rectangle 744" width="9.386" height="230.102" transform="translate(777.412 194.637) rotate(0.08)" fill="#845145"/>
    <path id="Path_1592" data-name="Path 1592" d="M489.826,230.694V169.64h2.916v61.467Zm2.885,26.626-2.916-.413-.155,131.664h2.931Z" transform="translate(290.688 36.24)" fill="#b67765"/>
    <path id="Path_1777" data-name="Path 1777" d="M0,0,9.309.1l1.242,161.761-9.309-.1Z" transform="translate(154.103 247.273) rotate(1.77)" fill="#845145"/>
    <path id="Path_1778" data-name="Path 1778" d="M0,0,1.8.016l.8,117.05L.8,117.05Z" transform="matrix(1, 0.028, -0.028, 1, 156.74, 292.141)" fill="#b67765"/>
    <path id="Path_1593" data-name="Path 1593" d="M332,63.49H598.65c3.212,0,5.816,3.465,5.816,7.74v59.011H332Z" transform="translate(203.826 71.367)" fill="#fad4ae"/>
    <rect id="Rectangle_747" data-name="Rectangle 747" width="272.466" height="2.188" transform="translate(535.826 199.399)" fill="#892c1d" opacity="0.5"/>
    <path id="Path_1594" data-name="Path 1594" d="M81.374,182.92h575.7v43.654H77V188.782c0-3.237,1.972-5.862,4.4-5.862Z" transform="translate(63.318 198.444)" fill="#a46b58"/>
    <path id="Path_1595" data-name="Path 1595" d="M159.1,232.856H76.742L74.2,194.837a9.219,9.219,0,0,1,1.49-5.84,5.124,5.124,0,0,1,4.264-2.416l79.1,1.92Z" transform="translate(61.761 54.265)" fill="#fad4ae"/>
    <path id="Path_1596" data-name="Path 1596" d="M451.07,115.76h75.193c3.958,0,7.166,4.269,7.166,9.536v34.779H451.07Z" transform="translate(269.435 126.984)" fill="#fad4ae"/>
    <rect id="Rectangle_748" data-name="Rectangle 748" width="82.359" height="2.374" transform="translate(720.505 284.685)" fill="#892c1d" opacity="0.5"/>
    <path id="Path_1597" data-name="Path 1597" d="M248.93,125.06c0-3.264,1.984-5.912,4.436-5.924l126.159-.475a3.268,3.268,0,0,1,2.731,1.429,5.868,5.868,0,0,1,1.085,3.628l-7.011,319.1H248.93Z" transform="translate(158.054 -18.005)" fill="#a46b58"/>
    <path id="Path_1598" data-name="Path 1598" d="M255.985,131.23l-.155,254.557H363.377l1.985-254.557Z" transform="translate(161.856 -4.629)" fill="#fad4ae"/>
    <path id="Path_1599" data-name="Path 1599" d="M257.861,148.16l-.031,69.5h31.889v-69.5Z" transform="translate(162.958 161.459)" fill="#333b4e"/>
    <rect id="Rectangle_749" data-name="Rectangle 749" width="31.811" height="69.496" transform="translate(455.934 309.619)" fill="#333b4e"/>
    <path id="Path_1600" data-name="Path 1600" d="M303.14,148.16v69.5h30.214l2.4-69.5Z" transform="translate(187.924 161.459)" fill="#333b4e"/>
    <g id="Group_1192" data-name="Group 1192" transform="translate(421.796 313.809)" opacity="0.3">
      <path id="Path_1601" data-name="Path 1601" d="M309.5,214.932h5.661l16.084-64.212h-5.661Z" transform="translate(-230.367 -149.626)" fill="#90f7d3"/>
      <path id="Path_1602" data-name="Path 1602" d="M303.88,215.5h2.3l16.642-65.306h-2.3Z" transform="translate(-233.464 -150.19)" fill="#90f7d3"/>
      <path id="Path_1603" data-name="Path 1603" d="M286.55,214.932H292.2l16.068-64.212h-5.646Z" transform="translate(-243.013 -149.626)" fill="#90f7d3"/>
      <path id="Path_1604" data-name="Path 1604" d="M280.94,215.5h2.28l16.627-65.306h-2.28Z" transform="translate(-246.104 -150.19)" fill="#90f7d3"/>
      <path id="Path_1605" data-name="Path 1605" d="M263.25,214.932h4.793l13.633-64.212h-4.793Z" transform="translate(-255.852 -149.626)" fill="#90f7d3"/>
      <path id="Path_1606" data-name="Path 1606" d="M258.48,215.5h1.939l14.114-65.306h-1.939Z" transform="translate(-258.48 -150.19)" fill="#90f7d3"/>
    </g>
    <path id="Path_1607" data-name="Path 1607" d="M377.959,189.472l.9-41.982H248.93v41.982Z" transform="translate(158.054 160.746)" fill="#20111d" opacity="0.5"/>
    <path id="Path_1608" data-name="Path 1608" d="M380.825,175.2H247.36V141.14H382.375Z" transform="translate(157.189 153.989)" fill="#e2ba7d"/>
    <path id="Path_1609" data-name="Path 1609" d="M382.267,143.6l.109-2.456H247.36V143.6Z" transform="translate(157.189 153.989)" fill="#fff5b6"/>
    <rect id="Rectangle_750" data-name="Rectangle 750" width="22.474" height="8.256" transform="translate(237.52 161.69)" fill="#be6b58"/>
    <rect id="Rectangle_751" data-name="Rectangle 751" width="22.474" height="8.256" transform="translate(248.75 172.443)" fill="#be6b58"/>
    <rect id="Rectangle_752" data-name="Rectangle 752" width="22.474" height="8.256" transform="translate(324.703 279.339)" fill="#be6b58"/>
    <rect id="Rectangle_753" data-name="Rectangle 753" width="22.474" height="8.256" transform="translate(335.948 290.093)" fill="#be6b58"/>
    <rect id="Rectangle_754" data-name="Rectangle 754" width="22.474" height="8.256" transform="translate(338.739 268.317)" fill="#be6b58"/>
    <rect id="Rectangle_755" data-name="Rectangle 755" width="22.474" height="8.256" transform="translate(349.984 279.071)" fill="#be6b58"/>
    <rect id="Rectangle_756" data-name="Rectangle 756" width="22.474" height="8.256" transform="translate(358.422 161.442)" fill="#be6b58"/>
    <rect id="Rectangle_757" data-name="Rectangle 757" width="22.474" height="8.256" transform="translate(369.651 172.175)" fill="#be6b58"/>
    <rect id="Rectangle_758" data-name="Rectangle 758" width="22.474" height="8.256" transform="translate(285.136 333.706)" fill="#be6b58"/>
    <rect id="Rectangle_759" data-name="Rectangle 759" width="22.474" height="8.256" transform="translate(296.366 344.459)" fill="#be6b58"/>
    <rect id="Rectangle_760" data-name="Rectangle 760" width="22.474" height="8.256" transform="translate(270.479 217.666)" fill="#be6b58"/>
    <rect id="Rectangle_761" data-name="Rectangle 761" width="22.474" height="8.256" transform="translate(281.724 228.42)" fill="#be6b58"/>
    <rect id="Rectangle_762" data-name="Rectangle 762" width="22.474" height="8.256" transform="translate(346.215 150.007)" fill="#be6b58"/>
    <rect id="Rectangle_763" data-name="Rectangle 763" width="22.474" height="8.256" transform="translate(320.36 150.007)" fill="#be6b58"/>
    <rect id="Rectangle_764" data-name="Rectangle 764" width="22.474" height="8.256" transform="translate(333.497 161.69)" fill="#be6b58"/>
    <rect id="Rectangle_765" data-name="Rectangle 765" width="22.474" height="8.256" transform="translate(266.478 279.69)" fill="#be6b58"/>
    <rect id="Rectangle_766" data-name="Rectangle 766" width="22.474" height="8.256" transform="translate(240.622 279.69)" fill="#be6b58"/>
    <rect id="Rectangle_767" data-name="Rectangle 767" width="22.474" height="8.256" transform="translate(253.744 291.393)" fill="#be6b58"/>
    <rect id="Rectangle_768" data-name="Rectangle 768" width="22.474" height="8.256" transform="translate(644.909 144.62)" fill="#e6b38b"/>
    <rect id="Rectangle_769" data-name="Rectangle 769" width="22.474" height="8.256" transform="translate(656.154 155.374)" fill="#e6b38b"/>
    <rect id="Rectangle_770" data-name="Rectangle 770" width="22.474" height="8.256" transform="translate(680.241 156.323)" fill="#e6b38b"/>
    <rect id="Rectangle_771" data-name="Rectangle 771" width="22.474" height="8.256" transform="translate(691.47 167.077)" fill="#e6b38b"/>
    <rect id="Rectangle_772" data-name="Rectangle 772" width="22.474" height="8.256" transform="translate(781.041 152.195)" fill="#e6b38b"/>
    <rect id="Rectangle_773" data-name="Rectangle 773" width="22.474" height="8.256" transform="translate(781.041 185.096)" fill="#e6b38b"/>
    <rect id="Rectangle_774" data-name="Rectangle 774" width="22.474" height="8.256" transform="translate(717.326 145.879)" fill="#e6b38b"/>
    <rect id="Rectangle_775" data-name="Rectangle 775" width="22.474" height="8.256" transform="translate(728.57 156.633)" fill="#e6b38b"/>
    <rect id="Rectangle_776" data-name="Rectangle 776" width="22.474" height="8.256" transform="translate(604.365 175.581)" fill="#e6b38b"/>
    <rect id="Rectangle_777" data-name="Rectangle 777" width="22.474" height="8.256" transform="translate(615.595 186.334)" fill="#e6b38b"/>
    <rect id="Rectangle_778" data-name="Rectangle 778" width="22.474" height="8.256" transform="translate(764.182 248.523)" fill="#e6b38b"/>
    <rect id="Rectangle_779" data-name="Rectangle 779" width="22.474" height="8.256" transform="translate(775.427 259.277)" fill="#e6b38b"/>
    <rect id="Rectangle_780" data-name="Rectangle 780" width="22.474" height="8.256" transform="translate(722.94 249.204)" fill="#e6b38b"/>
    <rect id="Rectangle_781" data-name="Rectangle 781" width="22.474" height="8.256" transform="translate(734.185 272.342)" fill="#e6b38b"/>
    <rect id="Rectangle_782" data-name="Rectangle 782" width="22.474" height="8.256" transform="translate(570.6 144.145)" fill="#e6b38b"/>
    <rect id="Rectangle_783" data-name="Rectangle 783" width="22.474" height="8.256" transform="translate(544.745 144.145)" fill="#e6b38b"/>
    <rect id="Rectangle_784" data-name="Rectangle 784" width="22.474" height="8.256" transform="translate(557.866 155.848)" fill="#e6b38b"/>
    <path id="Path_1610" data-name="Path 1610" d="M246.684,140.87l-24.211.619L222.24,231.5l24.444-.33Z" transform="translate(143.347 153.702)" fill="#20111d" opacity="0.5"/>
    <path id="Path_1611" data-name="Path 1611" d="M246.684,138.87l-24.211.619L222.24,229.5l24.444-.33Z" transform="translate(143.347 151.574)" fill="#fad4ae"/>
    <path id="Path_1612" data-name="Path 1612" d="M224.843,258.094h16.58v34.985l-16.673.248Zm0-7.224.093-37.3,16.472-.413v37.71Z" transform="translate(144.73 82.547)" fill="#333b4e"/>
    <path id="Path_1613" data-name="Path 1613" d="M224.25,271.727l18.224-.248V234.43H224.343Zm1.629-35.233h15.045v33.024l-15.122.206Z" transform="translate(144.455 105.179)" fill="#00232d"/>
    <path id="Path_1614" data-name="Path 1614" d="M224.413,213.1l-.093,39.34h18.116V212.65Zm16.472,37.276H225.871l.093-35.254,14.921-.371Z" transform="translate(144.493 82.004)" fill="#00232d"/>
    <path id="Path_1615" data-name="Path 1615" d="M239.35,212.69h3.1v14.118c-6.2,7.08-9.849,16.677-14.207,25.677h-3.909V246.6c1.66-4.768,3.319-9.536,4.932-14.324.589-1.693,1.179-3.385,1.784-5.078a163.433,163.433,0,0,1,8.3-14.51Zm-14.936,67.845-.124.206v14.118h4.653a382.487,382.487,0,0,1,11.912-37.152h-5.832q-5.8,11-10.64,22.828Z" transform="translate(144.477 82.047)" fill="#90f7d3" opacity="0.4"/>
    <path id="Path_1616" data-name="Path 1616" d="M219.514,140.87l-24.211.619L195.07,231.5l24.444-.33Z" transform="translate(128.376 153.702)" fill="#20111d" opacity="0.5"/>
    <path id="Path_1617" data-name="Path 1617" d="M219.514,138.87l-24.211.619L195.07,229.5l24.444-.33Z" transform="translate(128.376 151.574)" fill="#fad4ae"/>
    <path id="Path_1618" data-name="Path 1618" d="M197.673,258.094h16.58v34.985l-16.673.248Zm0-7.224.093-37.3,16.472-.413v37.71Z" transform="translate(129.759 82.547)" fill="#333b4e"/>
    <path id="Path_1619" data-name="Path 1619" d="M197.08,271.727l18.224-.248V234.43H197.173Zm1.644-35.233h15.029v33.024l-15.122.206Z" transform="translate(129.484 105.179)" fill="#00232d"/>
    <path id="Path_1620" data-name="Path 1620" d="M197.15,252.444h18.116V212.65l-18.023.454Zm1.644-37.318,14.921-.371V250.38H198.7Z" transform="translate(129.522 82.004)" fill="#00232d"/>
    <path id="Path_1621" data-name="Path 1621" d="M212.176,212.69h3.1v14.118c-6.2,7.08-9.849,16.677-14.207,25.677h-3.909V246.6c1.644-4.768,3.3-9.536,4.932-14.324q.869-2.539,1.768-5.078a159.743,159.743,0,0,1,8.313-14.51Zm-14.952,67.845a1.817,1.817,0,0,1-.124.206v14.118h4.653a382.477,382.477,0,0,1,11.912-37.152H207.8q-5.77,11.006-10.578,22.828Z" transform="translate(129.495 82.047)" fill="#90f7d3" opacity="0.4"/>
    <path id="Path_1622" data-name="Path 1622" d="M192.344,140.87l-24.211.619L167.9,231.5l24.444-.33Z" transform="translate(113.405 153.702)" fill="#20111d" opacity="0.5"/>
    <path id="Path_1623" data-name="Path 1623" d="M192.344,138.87l-24.211.619L167.9,229.5l24.444-.33Z" transform="translate(113.405 151.574)" fill="#fad4ae"/>
    <path id="Path_1624" data-name="Path 1624" d="M170.5,258.094h16.58v34.985l-16.673.248Zm0-7.224.093-37.3,16.472-.413v37.71Z" transform="translate(114.788 82.547)" fill="#333b4e"/>
    <path id="Path_1625" data-name="Path 1625" d="M170,213.1v39.34h18.116V212.65Zm16.472,37.276H171.551l.093-35.254,14.921-.371Z" transform="translate(114.563 82.004)" fill="#00232d"/>
    <path id="Path_1626" data-name="Path 1626" d="M169.91,271.727l18.224-.248V234.43H170.05Zm1.691-35.233H186.63v33.024l-15.122.206Z" transform="translate(114.513 105.179)" fill="#00232d"/>
    <path id="Path_1627" data-name="Path 1627" d="M185.011,212.69h3.1v14.118c-6.2,7.08-9.849,16.677-14.192,25.677h-3.878V246.6c1.644-4.768,3.3-9.536,4.932-14.324q.869-2.539,1.768-5.078a160.091,160.091,0,0,1,8.267-14.51Zm-14.967,67.845a.808.808,0,0,1-.124.206v14.118h4.653a378.279,378.279,0,0,1,11.9-37.152h-5.878q-5.755,11.008-10.547,22.828Z" transform="translate(114.518 82.047)" fill="#90f7d3" opacity="0.4"/>
    <path id="Path_1628" data-name="Path 1628" d="M165.189,140.87l-24.227.619L140.73,231.5l24.459-.33Z" transform="translate(98.434 153.702)" fill="#20111d" opacity="0.5"/>
    <path id="Path_1629" data-name="Path 1629" d="M165.189,138.87l-24.227.619L140.73,229.5l24.459-.33Z" transform="translate(98.434 151.574)" fill="#fad4ae"/>
    <path id="Path_1630" data-name="Path 1630" d="M143.328,258.094h16.6v34.985l-16.673.248Zm0-7.224.093-37.3,16.472-.413v37.71Z" transform="translate(99.823 82.547)" fill="#333b4e"/>
    <path id="Path_1631" data-name="Path 1631" d="M142.74,271.727l18.224-.248V234.43H142.833Zm1.644-35.233h15.029v33.024l-15.122.206Z" transform="translate(99.542 105.179)" fill="#00232d"/>
    <path id="Path_1632" data-name="Path 1632" d="M142.81,252.444h18.116V212.65L142.9,213.1Zm1.644-37.318,14.921-.371V250.38H144.361Z" transform="translate(99.581 82.004)" fill="#00232d"/>
    <path id="Path_1633" data-name="Path 1633" d="M157.836,212.69h3.1v14.118c-6.2,7.08-9.833,16.677-14.192,25.677h-3.924V246.6c1.644-4.768,3.3-9.536,4.932-14.324q.869-2.539,1.768-5.078a163.517,163.517,0,0,1,8.313-14.51Zm-14.952,67.845a.809.809,0,0,1-.124.206v14.118h4.653a378.279,378.279,0,0,1,11.9-37.152h-5.832Q147.707,268.719,142.884,280.535Z" transform="translate(99.553 82.047)" fill="#90f7d3" opacity="0.4"/>
    <path id="Path_1634" data-name="Path 1634" d="M246.684,82.22l-24.211.64-.233,90.012,24.444-.351Z" transform="translate(143.347 91.296)" fill="#20111d" opacity="0.5"/>
    <path id="Path_1635" data-name="Path 1635" d="M246.684,80.22l-24.211.64-.233,90.012,24.444-.351Z" transform="translate(143.347 89.168)" fill="#fad4ae"/>
    <path id="Path_1636" data-name="Path 1636" d="M224.843,199.444h16.58v34.985l-16.673.248Zm0-7.224.093-37.276,16.472-.433v37.71Z" transform="translate(144.73 20.142)" fill="#333b4e"/>
    <path id="Path_1637" data-name="Path 1637" d="M224.25,213.077l18.224-.248V175.78H224.343Zm1.629-35.233h15.045v33.024l-15.122.206Z" transform="translate(144.455 42.774)" fill="#00232d"/>
    <path id="Path_1638" data-name="Path 1638" d="M224.413,154.454l-.093,39.34h18.116V154Zm16.472,37.276H225.871l.093-35.233,14.921-.433Z" transform="translate(144.493 19.599)" fill="#00232d"/>
    <path id="Path_1639" data-name="Path 1639" d="M239.35,154h3.1v14.139c-6.2,7.059-9.849,16.657-14.207,25.656h-3.909v-5.862c1.66-4.789,3.319-9.556,4.932-14.345.589-1.693,1.179-3.385,1.784-5.078a166.452,166.452,0,0,1,8.3-14.51Zm-14.936,67.865a1.45,1.45,0,0,0-.124.206v14.1h4.653a384.308,384.308,0,0,1,11.912-37.152h-5.832q-5.805,11.054-10.64,22.931Z" transform="translate(144.477 19.599)" fill="#90f7d3" opacity="0.4"/>
    <path id="Path_1640" data-name="Path 1640" d="M219.514,82.22l-24.211.64-.233,90.012,24.444-.351Z" transform="translate(128.376 91.296)" fill="#20111d" opacity="0.5"/>
    <path id="Path_1641" data-name="Path 1641" d="M219.514,80.22l-24.211.64-.233,90.012,24.444-.351Z" transform="translate(128.376 89.168)" fill="#fad4ae"/>
    <path id="Path_1642" data-name="Path 1642" d="M197.673,199.444h16.58v34.985l-16.673.248Zm0-7.224.093-37.276,16.472-.433v37.71Z" transform="translate(129.759 20.142)" fill="#333b4e"/>
    <path id="Path_1643" data-name="Path 1643" d="M197.08,213.077l18.224-.248V175.78H197.173Zm1.644-35.233h15.029v33.024l-15.122.206Z" transform="translate(129.484 42.774)" fill="#00232d"/>
    <path id="Path_1644" data-name="Path 1644" d="M197.243,154.454l-.093,39.34h18.116V154Zm16.472,37.276H198.7l.093-35.233,14.921-.392Z" transform="translate(129.522 19.599)" fill="#00232d"/>
    <path id="Path_1645" data-name="Path 1645" d="M212.176,154h3.1v14.139c-6.2,7.059-9.849,16.657-14.207,25.656h-3.909v-5.862c1.644-4.789,3.3-9.556,4.932-14.345q.869-2.539,1.768-5.078A162.62,162.62,0,0,1,212.176,154Zm-14.952,67.865a1.128,1.128,0,0,0-.124.206v14.1h4.653a384.349,384.349,0,0,1,11.912-37.153H207.8q-5.773,11.057-10.578,22.931Z" transform="translate(129.495 19.599)" fill="#90f7d3" opacity="0.4"/>
    <path id="Path_1646" data-name="Path 1646" d="M192.344,82.22l-24.211.64-.233,90.012,24.444-.351Z" transform="translate(113.405 91.296)" fill="#20111d" opacity="0.5"/>
    <path id="Path_1647" data-name="Path 1647" d="M192.344,80.22l-24.211.64-.233,90.012,24.444-.351Z" transform="translate(113.405 89.168)" fill="#fad4ae"/>
    <path id="Path_1648" data-name="Path 1648" d="M170.5,199.444h16.58v34.985l-16.673.248Zm0-7.224.093-37.276,16.472-.433v37.71Z" transform="translate(114.788 20.142)" fill="#333b4e"/>
    <path id="Path_1649" data-name="Path 1649" d="M170,154.454v39.34h18.116V154Zm16.472,37.276H171.551l.093-35.233,14.921-.392Z" transform="translate(114.563 19.599)" fill="#00232d"/>
    <path id="Path_1650" data-name="Path 1650" d="M169.91,213.077l18.224-.248V175.78H170.05Zm1.691-35.233H186.63v33.024l-15.122.206Z" transform="translate(114.513 42.774)" fill="#00232d"/>
    <path id="Path_1651" data-name="Path 1651" d="M185.011,154h3.1v14.139c-6.2,7.059-9.849,16.657-14.192,25.656h-3.878v-5.862c1.644-4.789,3.3-9.556,4.932-14.345q.869-2.539,1.768-5.078A162.962,162.962,0,0,1,185.011,154Zm-14.967,67.948a1.445,1.445,0,0,1-.124.206v14.1h4.653a380.025,380.025,0,0,1,11.9-37.153h-5.878q-5.755,11.019-10.547,22.849Z" transform="translate(114.518 19.599)" fill="#90f7d3" opacity="0.4"/>
    <path id="Path_1652" data-name="Path 1652" d="M165.189,82.22l-24.227.64-.233,90.012,24.459-.351Z" transform="translate(98.434 91.296)" fill="#20111d" opacity="0.5"/>
    <path id="Path_1653" data-name="Path 1653" d="M165.189,80.22l-24.227.64-.233,90.012,24.459-.351Z" transform="translate(98.434 89.168)" fill="#fad4ae"/>
    <path id="Path_1654" data-name="Path 1654" d="M143.328,199.444h16.6v34.985l-16.673.248Zm0-7.224.093-37.276,16.472-.433v37.71Z" transform="translate(99.823 20.142)" fill="#333b4e"/>
    <path id="Path_1655" data-name="Path 1655" d="M142.74,213.077l18.224-.248V175.78H142.833Zm1.644-35.233h15.029v33.024l-15.122.206Z" transform="translate(99.542 42.774)" fill="#00232d"/>
    <path id="Path_1656" data-name="Path 1656" d="M142.81,193.794h18.116V154l-18.023.454Zm1.644-37.3,14.921-.392V191.73H144.361Z" transform="translate(99.581 19.599)" fill="#00232d"/>
    <path id="Path_1657" data-name="Path 1657" d="M157.836,154h3.1v14.139c-6.2,7.059-9.833,16.657-14.192,25.656h-3.924v-5.862c1.644-4.789,3.3-9.556,4.932-14.345q.869-2.539,1.768-5.078A166.573,166.573,0,0,1,157.836,154Zm-14.952,67.865a1.448,1.448,0,0,1-.124.206v14.1h4.653a380.037,380.037,0,0,1,11.9-37.153h-5.832q-5.773,11.063-10.593,22.931Z" transform="translate(99.553 19.599)" fill="#90f7d3" opacity="0.4"/>
    <g id="Group_1193" data-name="Group 1193" transform="translate(560.131 201.608)" opacity="0.5">
      <rect id="Rectangle_785" data-name="Rectangle 785" width="6.189" height="179.55" transform="translate(151.999)"/>
      <rect id="Rectangle_786" data-name="Rectangle 786" width="6.189" height="179.55" transform="translate(116.326)"/>
      <rect id="Rectangle_787" data-name="Rectangle 787" width="6.189" height="179.55" transform="translate(80.653)"/>
      <rect id="Rectangle_788" data-name="Rectangle 788" width="6.189" height="179.55" transform="translate(40.854)"/>
      <rect id="Rectangle_789" data-name="Rectangle 789" width="6.189" height="179.55"/>
    </g>
    <rect id="Rectangle_790" data-name="Rectangle 790" width="6.204" height="179.55" transform="translate(679.559 201.608)" fill="#9057d9"/>
    <rect id="Rectangle_791" data-name="Rectangle 791" width="6.204" height="179.55" transform="translate(643.885 201.608)" fill="#a4dce3"/>
    <rect id="Rectangle_792" data-name="Rectangle 792" width="6.204" height="179.55" transform="translate(604.071 201.608)" fill="#ff8972"/>
    <rect id="Rectangle_793" data-name="Rectangle 793" width="6.204" height="179.55" transform="translate(563.233 201.608)" fill="#c7ef97"/>
    <rect id="Rectangle_794" data-name="Rectangle 794" width="6.204" height="179.55" transform="translate(714.301 201.608)" fill="#ff909a"/>
    <rect id="Rectangle_795" data-name="Rectangle 795" width="105.919" height="7.203" transform="translate(417.81 381.653)" fill="#c59055"/>
    <rect id="Rectangle_796" data-name="Rectangle 796" width="105.919" height="2.229" transform="translate(417.81 381.653)" fill="#fff5b6"/>
    <rect id="Rectangle_797" data-name="Rectangle 797" width="105.919" height="7.183" transform="translate(417.81 388.857)" fill="#c59055"/>
    <rect id="Rectangle_798" data-name="Rectangle 798" width="105.919" height="2.229" transform="translate(417.81 388.857)" fill="#fff5b6"/>
    <rect id="Rectangle_799" data-name="Rectangle 799" width="105.919" height="7.203" transform="translate(417.81 396.039)" fill="#c59055"/>
    <rect id="Rectangle_800" data-name="Rectangle 800" width="105.919" height="2.229" transform="translate(417.81 396.039)" fill="#fff5b6"/>
    <rect id="Rectangle_801" data-name="Rectangle 801" width="105.919" height="7.183" transform="translate(417.81 403.243)" fill="#c59055"/>
    <rect id="Rectangle_802" data-name="Rectangle 802" width="105.919" height="2.229" transform="translate(417.81 403.243)" fill="#fff5b6"/>
    <rect id="Rectangle_803" data-name="Rectangle 803" width="105.919" height="7.203" transform="translate(417.81 410.426)" fill="#c59055"/>
    <rect id="Rectangle_804" data-name="Rectangle 804" width="105.919" height="2.229" transform="translate(417.81 410.426)" fill="#fff5b6"/>
    <rect id="Rectangle_805" data-name="Rectangle 805" width="105.919" height="7.203" transform="translate(417.81 417.629)" fill="#c59055"/>
    <rect id="Rectangle_806" data-name="Rectangle 806" width="105.919" height="2.229" transform="translate(417.81 417.629)" fill="#fff5b6"/>
    <path id="Path_1658" data-name="Path 1658" d="M247.741,229.379h15.184L262.77,181l-16.72-.908Z" transform="translate(156.467 195.433)" fill="#e2ba7d"/>
    <path id="Path_1659" data-name="Path 1659" d="M262.785,185.147,262.77,181l-16.72-.908.171,5.057Z" transform="translate(156.467 195.433)" fill="#892c1d" opacity="0.5"/>
    <path id="Path_1660" data-name="Path 1660" d="M245.672,249.09l18.612,1.094a.978.978,0,0,1,.745,1.073V254.6a1.256,1.256,0,0,1-.232.765.7.7,0,0,1-.575.308l-18.488-.97a.966.966,0,0,1-.744-1.032l-.14-3.447a1.3,1.3,0,0,1,.224-.807A.722.722,0,0,1,245.672,249.09Z" transform="translate(155.805 120.777)" fill="#e2ba7d"/>
    <path id="Path_1661" data-name="Path 1661" d="M253.023,184.8h3.211c.471,0,.853.508.853,1.135v3.55c0,.627-.382,1.135-.853,1.135H252.17v-4.685C252.17,185.308,252.552,184.8,253.023,184.8Z" transform="translate(159.839 200.445)" fill="#f4d18b"/>
    <rect id="Rectangle_807" data-name="Rectangle 807" width="5.754" height="3.488" rx="0.55" transform="translate(409.233 391.746)" fill="#f4d18b"/>
    <rect id="Rectangle_808" data-name="Rectangle 808" width="3.009" height="4.211" rx="0.55" transform="translate(408.07 386.421)" fill="#f4d18b"/>
    <path id="Path_1662" data-name="Path 1662" d="M250.9,274.3h4.467a.955.955,0,0,0,.822-.991l.2-2.064H250v1.878a1.356,1.356,0,0,0,.254.853A.749.749,0,0,0,250.9,274.3Z" transform="translate(158.643 144.356)" fill="#f4d18b"/>
    <path id="Path_1663" data-name="Path 1663" d="M250.85,272.5h4.932a1.006,1.006,0,0,0,.838-1.053v-1.115a1.382,1.382,0,0,0-.231-.886.762.762,0,0,0-.653-.352l-4.994.33a1.065,1.065,0,0,0-.791,1.176v.764a1.358,1.358,0,0,0,.271.819A.762.762,0,0,0,250.85,272.5Z" transform="translate(158.616 142.058)" fill="#f4d18b"/>
    <path id="Path_1664" data-name="Path 1664" d="M249.095,276.332h4.141a1.026,1.026,0,0,0,.838-1.115v-.97a1.376,1.376,0,0,0-.227-.836.778.778,0,0,0-.61-.361h-4.2a.787.787,0,0,0-.606.376,1.386,1.386,0,0,0-.216.842v.949C248.228,275.848,248.621,276.343,249.095,276.332Z" transform="translate(157.656 146.272)" fill="#f4d18b"/>
    <path id="Path_1665" data-name="Path 1665" d="M248.2,274.756h1.551a.778.778,0,0,0,.61-.362,1.376,1.376,0,0,0,.227-.836v-3.013a.128.128,0,0,0-.021-.1.065.065,0,0,0-.072-.027h-2.28a.78.78,0,0,0-.616.369,1.383,1.383,0,0,0-.221.849l.078,2.064a1.071,1.071,0,0,0,.744,1.053Z" transform="translate(157.199 143.472)" fill="#f4d18b"/>
    <path id="Path_1666" data-name="Path 1666" d="M338.519,229.379H323.35L323.49,181l16.735-.908Z" transform="translate(199.06 195.433)" fill="#e2ba7d"/>
    <path id="Path_1667" data-name="Path 1667" d="M323.43,185.147l.016-4.149,16.735-.908-.171,5.057Z" transform="translate(199.104 195.433)" fill="#892c1d" opacity="0.5"/>
    <path id="Path_1668" data-name="Path 1668" d="M341.767,249.09l-18.612,1.094a.978.978,0,0,0-.745,1.073V254.6a1.236,1.236,0,0,0,.227.772.686.686,0,0,0,.58.3l18.488-.97a.985.985,0,0,0,.745-1.032l.124-3.447a1.279,1.279,0,0,0-.214-.806.71.71,0,0,0-.593-.329Z" transform="translate(198.542 120.777)" fill="#e2ba7d"/>
    <path id="Path_1669" data-name="Path 1669" d="M0,0H4.064c.471,0,.853.508.853,1.135v3.55c0,.627-.382,1.135-.853,1.135H.853C.382,5.821,0,5.312,0,4.685Z" transform="translate(529.793 391.065) rotate(180)" fill="#f4d18b"/>
    <rect id="Rectangle_809" data-name="Rectangle 809" width="5.754" height="3.488" rx="0.55" transform="translate(532.569 395.234) rotate(180)" fill="#f4d18b"/>
    <rect id="Rectangle_810" data-name="Rectangle 810" width="3.009" height="4.211" rx="0.55" transform="translate(533.717 390.611) rotate(180)" fill="#f4d18b"/>
    <path id="Path_1670" data-name="Path 1670" d="M331.641,274.3h-4.467a.992.992,0,0,1-.822-.991l-.2-2.064h6.359v1.878a1.342,1.342,0,0,1-.239.844.744.744,0,0,1-.63.333Z" transform="translate(200.603 144.356)" fill="#f4d18b"/>
    <path id="Path_1671" data-name="Path 1671" d="M331.786,272.5h-4.917a1.006,1.006,0,0,1-.838-1.053v-1.115a1.363,1.363,0,0,1,.22-.885.749.749,0,0,1,.649-.353l5.01.33a1.086,1.086,0,0,1,.791,1.177v.764a1.336,1.336,0,0,1-.271.833A.739.739,0,0,1,331.786,272.5Z" transform="translate(200.535 142.058)" fill="#f4d18b"/>
    <path id="Path_1672" data-name="Path 1672" d="M333.259,276.332h-4.141a1.026,1.026,0,0,1-.838-1.115v-.97a1.375,1.375,0,0,1,.227-.836.778.778,0,0,1,.61-.361h4.188a.8.8,0,0,1,.611.375,1.4,1.4,0,0,1,.227.843v.949a1.333,1.333,0,0,1-.266.8.748.748,0,0,1-.618.31Z" transform="translate(201.776 146.272)" fill="#f4d18b"/>
    <path id="Path_1673" data-name="Path 1673" d="M333.209,274.754h-1.551a.8.8,0,0,1-.605-.368,1.4,1.4,0,0,1-.232-.83v-3.013c0-.068.042-.124.093-.124h2.3a.8.8,0,0,1,.611.375,1.4,1.4,0,0,1,.227.843l-.093,2.064a1.051,1.051,0,0,1-.745,1.053Z" transform="translate(203.176 143.473)" fill="#f4d18b"/>
    <path id="Path_1674" data-name="Path 1674" d="M224.97,193h6.824c.934,0,1.691,1.007,1.691,2.25v6.481c0,1.243-.757,2.25-1.691,2.25h-6.933c-.857,0-1.551-.924-1.551-2.064v-6.626A2.057,2.057,0,0,1,224.97,193Z" transform="translate(143.937 209.17)" fill="#cc9f77"/>
    <rect id="Rectangle_811" data-name="Rectangle 811" width="11.958" height="6.584" rx="1.09" transform="translate(361.446 414.471)" fill="#cc9f77"/>
    <rect id="Rectangle_812" data-name="Rectangle 812" width="6.266" height="7.947" rx="1.09" transform="translate(359.042 404.399)" fill="#cc9f77"/>
    <path id="Path_1675" data-name="Path 1675" d="M212.62,185.25h5.568c.762,0,1.38.822,1.38,1.837v5.284c0,1.015-.618,1.837-1.38,1.837h-5.646c-.72,0-1.3-.776-1.3-1.734v-5.387C211.24,186.072,211.858,185.25,212.62,185.25Z" transform="translate(137.286 200.923)" fill="#cc9f77"/>
    <rect id="Rectangle_813" data-name="Rectangle 813" width="9.74" height="5.366" rx="0.89" transform="translate(343.827 396.163)" fill="#cc9f77"/>
    <rect id="Rectangle_814" data-name="Rectangle 814" width="5.103" height="6.481" rx="0.89" transform="translate(341.872 387.969)" fill="#cc9f77"/>
    <path id="Path_1676" data-name="Path 1676" d="M236.483,267.7h10.1c.924.027,1.723-.851,1.877-2.064l.279-2.6a1.7,1.7,0,0,0-.267-1.1.934.934,0,0,0-.8-.446h-12.02a.928.928,0,0,0-.76.389,1.652,1.652,0,0,0-.325.994v2.477a2.839,2.839,0,0,0,.591,1.714,1.589,1.589,0,0,0,1.333.639Z" transform="translate(150.136 133.971)" fill="#cc9f77"/>
    <path id="Path_1677" data-name="Path 1677" d="M236.358,264.022h11.152c.958.041,1.78-.9,1.892-2.167l.155-2.25a2.919,2.919,0,0,0-.548-1.9,1.591,1.591,0,0,0-1.437-.684l-11.322.681a2.226,2.226,0,0,0-1.8,2.415v1.569C234.5,263.03,235.35,264.069,236.358,264.022Z" transform="translate(150.075 129.211)" fill="#cc9f77"/>
    <path id="Path_1678" data-name="Path 1678" d="M232.468,271.953h9.306c1,.036,1.834-.988,1.892-2.312v-2.064a2.908,2.908,0,0,0-.557-1.759,1.632,1.632,0,0,0-1.335-.7h-9.492a1.616,1.616,0,0,0-1.346.7,2.9,2.9,0,0,0-.547,1.779v2.064a2.818,2.818,0,0,0,.67,1.739,1.563,1.563,0,0,0,1.409.552Z" transform="translate(147.838 137.833)" fill="#cc9f77"/>
    <path id="Path_1679" data-name="Path 1679" d="M230.444,268.647h3.474a1.609,1.609,0,0,0,1.329-.676,2.872,2.872,0,0,0,.563-1.739v-5.119a1.64,1.64,0,0,0-.336-.988.919.919,0,0,0-.765-.374h-4.3a1.621,1.621,0,0,0-1.357.712,2.913,2.913,0,0,0-.535,1.806l.186,4.128A2.221,2.221,0,0,0,230.444,268.647Z" transform="translate(146.807 132.119)" fill="#cc9f77"/>
    <path id="Path_1680" data-name="Path 1680" d="M152.311,265.8l9.942.248a2.1,2.1,0,0,1,1.737,2.064l.264,2.621a1.674,1.674,0,0,1-.219,1.062.946.946,0,0,1-.743.486l-11.664.145c-.631.012-1.154-.647-1.179-1.486v-2.683a2.915,2.915,0,0,1,.546-1.744A1.645,1.645,0,0,1,152.311,265.8Z" transform="translate(103.79 138.558)" fill="#cc9f77"/>
    <path id="Path_1681" data-name="Path 1681" d="M196.83,270.138l10.749-.268a1.974,1.974,0,0,1,1.691,2.064l.14,2.167a2.924,2.924,0,0,1-.459,1.792,1.653,1.653,0,0,1-1.294.788H196.908c-1.028.035-1.882-1.047-1.908-2.415v-1.631A2.256,2.256,0,0,1,196.83,270.138Z" transform="translate(128.338 142.888)" fill="#cc9f77"/>
    <path id="Path_1682" data-name="Path 1682" d="M183.942,256.794l10.159.743a2.581,2.581,0,0,1,1.954,2.663l.093,2.167a2.925,2.925,0,0,1-.5,1.831,1.629,1.629,0,0,1-1.35.749L184.19,264.6c-1.226-.031-2.223-1.322-2.28-2.952v-2.312a2.953,2.953,0,0,1,.592-1.871,1.623,1.623,0,0,1,1.44-.668Z" transform="translate(121.125 128.966)" fill="#cc9f77"/>
    <path id="Path_1683" data-name="Path 1683" d="M190.267,266h3.862c1.149.008,2.1,1.2,2.171,2.724l.124,5.552c0,.832-.507,1.507-1.132,1.507l-4.762.144c-1.205.082-2.236-1.142-2.311-2.745v-4.706c.058-1.432.971-2.536,2.047-2.477Z" transform="translate(124.602 138.769)" fill="#cc9f77"/>
    <path id="Path_1684" data-name="Path 1684" d="M172.963,272.744h10.113c.92.026,1.714-.855,1.861-2.064l.295-2.6a1.721,1.721,0,0,0-.272-1.117.948.948,0,0,0-.814-.452h-12a.942.942,0,0,0-.771.4,1.677,1.677,0,0,0-.33,1.009v2.456C171.082,271.73,171.941,272.79,172.963,272.744Z" transform="translate(115.136 139.313)" fill="#cc9f77"/>
    <path id="Path_1685" data-name="Path 1685" d="M172.848,269.1H184c.957.029,1.772-.921,1.877-2.188l.155-2.25a2.972,2.972,0,0,0-.524-1.936,1.623,1.623,0,0,0-1.446-.727l-11.322.7a2.207,2.207,0,0,0-1.8,2.415v1.548a2.9,2.9,0,0,0,.568,1.753A1.623,1.623,0,0,0,172.848,269.1Z" transform="translate(115.08 134.511)" fill="#cc9f77"/>
    <path id="Path_1686" data-name="Path 1686" d="M168.958,276.972h9.306c.991.036,1.826-.975,1.892-2.291v-2.064a2.917,2.917,0,0,0-.551-1.773,1.634,1.634,0,0,0-1.341-.7h-9.492a1.637,1.637,0,0,0-1.347.711,2.925,2.925,0,0,0-.546,1.786l.078,2.064a2.8,2.8,0,0,0,.643,1.692A1.569,1.569,0,0,0,168.958,276.972Z" transform="translate(112.843 143.175)" fill="#cc9f77"/>
    <path id="Path_1687" data-name="Path 1687" d="M166.994,273.69h3.4a1.629,1.629,0,0,0,1.33-.69,2.9,2.9,0,0,0,.562-1.746v-5.1c-.033-.785-.526-1.4-1.117-1.383h-4.3a1.611,1.611,0,0,0-1.409.686,2.926,2.926,0,0,0-.56,1.853l.2,4.128c.089,1.295.916,2.277,1.892,2.25Z" transform="translate(111.752 137.459)" fill="#cc9f77"/>
    <path id="Path_1688" data-name="Path 1688" d="M172.6,266.744H162.5c-.926.036-1.729-.847-1.877-2.064l-.295-2.6a1.694,1.694,0,0,1,.272-1.111.928.928,0,0,1,.814-.437h12.02a.928.928,0,0,1,.76.389,1.652,1.652,0,0,1,.325.994v2.477a2.858,2.858,0,0,1-.6,1.707,1.606,1.606,0,0,1-1.328.646Z" transform="translate(109.232 132.949)" fill="#cc9f77"/>
    <path id="Path_1689" data-name="Path 1689" d="M142.115,263.8H130.978c-.963.04-1.787-.913-1.892-2.188l-.155-2.25a2.94,2.94,0,0,1,.554-1.888,1.609,1.609,0,0,1,1.432-.692l11.322.7a2.226,2.226,0,0,1,1.8,2.415v1.548a2.839,2.839,0,0,1-.591,1.714A1.589,1.589,0,0,1,142.115,263.8Z" transform="translate(91.932 128.956)" fill="#cc9f77"/>
    <path id="Path_1690" data-name="Path 1690" d="M145.368,271.67h-9.306c-1,.036-1.834-.988-1.892-2.312V267.4a2.917,2.917,0,0,1,.551-1.773,1.634,1.634,0,0,1,1.341-.7h9.492a1.637,1.637,0,0,1,1.347.711,2.925,2.925,0,0,1,.546,1.786v2.064a2.768,2.768,0,0,1-.7,1.672,1.55,1.55,0,0,1-1.383.516Z" transform="translate(94.82 137.621)" fill="#cc9f77"/>
    <path id="Path_1691" data-name="Path 1691" d="M133.289,273.687h-3.4a1.612,1.612,0,0,1-1.334-.683,2.88,2.88,0,0,1-.558-1.752l.078-5.1c.017-.787.51-1.406,1.1-1.383h4.3a1.624,1.624,0,0,1,1.363.719,2.921,2.921,0,0,1,.529,1.82l-.186,4.128C135.092,272.732,134.266,273.715,133.289,273.687Z" transform="translate(91.42 137.461)" fill="#cc9f77"/>
    <path id="Path_1692" data-name="Path 1692" d="M91.775,262.621H80.623c-.957.029-1.772-.921-1.877-2.188l-.155-2.25a2.939,2.939,0,0,1,.554-1.888,1.609,1.609,0,0,1,1.432-.692l11.322.7a2.226,2.226,0,0,1,1.8,2.415v1.548a2.857,2.857,0,0,1-.595,1.707A1.607,1.607,0,0,1,91.775,262.621Z" transform="translate(64.194 127.701)" fill="#cc9f77"/>
    <path id="Path_1693" data-name="Path 1693" d="M95.738,267.182H86.432c-.991.036-1.826-.975-1.892-2.291v-2.064a2.889,2.889,0,0,1,.552-1.766,1.614,1.614,0,0,1,1.34-.691h9.492a1.6,1.6,0,0,1,1.341.7,2.881,2.881,0,0,1,.536,1.778v2.064a2.794,2.794,0,0,1-.665,1.725A1.549,1.549,0,0,1,95.738,267.182Z" transform="translate(67.473 132.779)" fill="#cc9f77"/>
    <path id="Path_1694" data-name="Path 1694" d="M129.618,268.461h-9.306c-1.024,0-1.861.206-1.892-2.064V259.09c0-2.312.822-2.27,1.892-2.27h9.477c1.086,0,1.939,0,1.892,2.312v7.307C131.464,268.688,130.626,268.461,129.618,268.461Z" transform="translate(86.141 129.003)" fill="#cc9f77"/>
    <path id="Path_1695" data-name="Path 1695" d="M95.738,276.4H86.432c-1.024,0-1.861.206-1.892-2.064V267.03c0-2.312.822-2.27,1.892-2.27h9.492c1.07,0,1.939,0,1.877,2.312v7.307C97.662,276.628,96.746,276.4,95.738,276.4Z" transform="translate(67.473 137.451)" fill="#cc9f77"/>
    <path id="Path_1696" data-name="Path 1696" d="M83.659,273.69h-3.4a1.63,1.63,0,0,1-1.33-.69,2.9,2.9,0,0,1-.562-1.746v-5.1c.033-.785.526-1.4,1.117-1.383h4.3a1.611,1.611,0,0,1,1.409.686,2.926,2.926,0,0,1,.56,1.853l-.2,4.128C85.462,272.734,84.636,273.717,83.659,273.69Z" transform="translate(64.073 137.459)" fill="#cc9f77"/>
    <path id="Path_1697" data-name="Path 1697" d="M118.022,277.6h-3.35a1.612,1.612,0,0,1-1.334-.684,2.88,2.88,0,0,1-.558-1.752v-5.1c.017-.787.51-1.406,1.1-1.383h4.3a1.624,1.624,0,0,1,1.363.719,2.921,2.921,0,0,1,.529,1.82l-.186,4.128A2.165,2.165,0,0,1,118.022,277.6Z" transform="translate(83.034 141.621)" fill="#cc9f77"/>
    <path id="Path_1698" data-name="Path 1698" d="M112.879,277.6h-3.4a1.612,1.612,0,0,1-1.334-.684,2.88,2.88,0,0,1-.558-1.752v-5.1c.017-.787.51-1.406,1.1-1.383h4.3a1.624,1.624,0,0,1,1.363.719,2.921,2.921,0,0,1,.529,1.82l-.186,4.128A2.186,2.186,0,0,1,112.879,277.6Z" transform="translate(80.174 141.621)" fill="#cc9f77"/>
    <path id="Path_1699" data-name="Path 1699" d="M430.814,193h6.778c.934,0,1.691,1.007,1.691,2.25v6.5c0,1.242-.757,2.25-1.69,2.25h-6.871c-.857,0-1.551-.924-1.551-2.064v-6.626A2.07,2.07,0,0,1,430.814,193Z" transform="translate(257.368 209.17)" fill="#cc9f77"/>
    <rect id="Rectangle_815" data-name="Rectangle 815" width="11.881" height="6.584" rx="1.09" transform="translate(680.753 414.471)" fill="#cc9f77"/>
    <rect id="Rectangle_816" data-name="Rectangle 816" width="6.235" height="7.947" rx="1.09" transform="translate(678.364 404.399)" fill="#cc9f77"/>
    <path id="Path_1700" data-name="Path 1700" d="M418.535,185.25h5.522c.762,0,1.38.822,1.38,1.837v5.3c0,1.015-.618,1.837-1.38,1.837h-5.6c-.711,0-1.287-.767-1.287-1.713v-5.408a1.671,1.671,0,0,1,1.365-1.858Z" transform="translate(250.756 200.923)" fill="#cc9f77"/>
    <rect id="Rectangle_817" data-name="Rectangle 817" width="9.678" height="5.366" rx="0.89" transform="translate(663.242 396.163)" fill="#cc9f77"/>
    <rect id="Rectangle_818" data-name="Rectangle 818" width="5.072" height="6.481" rx="0.89" transform="translate(661.303 387.969)" fill="#cc9f77"/>
    <path id="Path_1701" data-name="Path 1701" d="M442.264,267.7h9.973c.923.035,1.721-.85,1.861-2.064l.295-2.6a1.717,1.717,0,0,0-.273-1.1.953.953,0,0,0-.8-.453H441.38a.917.917,0,0,0-.755.39,1.637,1.637,0,0,0-.315.993v2.477a2.833,2.833,0,0,0,.6,1.729A1.578,1.578,0,0,0,442.264,267.7Z" transform="translate(263.506 133.971)" fill="#cc9f77"/>
    <path id="Path_1702" data-name="Path 1702" d="M442.138,264.021h11.074c.952.03,1.765-.909,1.877-2.167l.155-2.25a2.924,2.924,0,0,0-.543-1.888,1.6,1.6,0,0,0-1.427-.692l-11.26.681a2.214,2.214,0,0,0-1.784,2.415v1.569a2.833,2.833,0,0,0,.591,1.693A1.593,1.593,0,0,0,442.138,264.021Z" transform="translate(263.462 129.211)" fill="#cc9f77"/>
    <path id="Path_1703" data-name="Path 1703" d="M438.247,271.953h9.306c.993.035,1.827-.991,1.877-2.312v-2.064a2.892,2.892,0,0,0-.547-1.758,1.621,1.621,0,0,0-1.33-.7h-9.446a1.605,1.605,0,0,0-1.341.7,2.881,2.881,0,0,0-.536,1.778l.078,2.064c.066,1.341.93,2.362,1.939,2.291Z" transform="translate(261.258 137.833)" fill="#cc9f77"/>
    <path id="Path_1704" data-name="Path 1704" d="M436.281,268.646h3.381a1.615,1.615,0,0,0,1.319-.684,2.875,2.875,0,0,0,.558-1.731v-5.119c-.025-.778-.516-1.386-1.1-1.362h-4.281a1.646,1.646,0,0,0-1.342.726,2.936,2.936,0,0,0-.535,1.792l.2,4.128A2.174,2.174,0,0,0,436.281,268.646Z" transform="translate(260.184 132.12)" fill="#cc9f77"/>
    <path id="Path_1705" data-name="Path 1705" d="M358.586,265.8l9.9.248a2.089,2.089,0,0,1,1.722,2.064l.264,2.621a1.674,1.674,0,0,1-.219,1.062.946.946,0,0,1-.743.486l-11.586.145c-.631.012-1.154-.647-1.179-1.486v-2.683a2.9,2.9,0,0,1,.536-1.743,1.634,1.634,0,0,1,1.31-.713Z" transform="translate(217.458 138.558)" fill="#cc9f77"/>
    <path id="Path_1706" data-name="Path 1706" d="M402.861,270.138l10.671-.268a1.974,1.974,0,0,1,1.691,2.064l.124,2.167a2.927,2.927,0,0,1-.454,1.785,1.66,1.66,0,0,1-1.283.8H402.923c-1.031.035-1.889-1.044-1.923-2.415v-1.631a2.951,2.951,0,0,1,.54-1.765A1.668,1.668,0,0,1,402.861,270.138Z" transform="translate(241.846 142.888)" fill="#cc9f77"/>
    <path id="Path_1707" data-name="Path 1707" d="M390.042,256.794l10.082.743a2.581,2.581,0,0,1,1.954,2.663l.093,2.167a2.925,2.925,0,0,1-.5,1.831,1.629,1.629,0,0,1-1.35.749L390.29,264.6c-1.229-.021-2.231-1.318-2.28-2.952v-2.312a2.953,2.953,0,0,1,.592-1.871,1.623,1.623,0,0,1,1.44-.668Z" transform="translate(234.688 128.966)" fill="#cc9f77"/>
    <path id="Path_1708" data-name="Path 1708" d="M396.305,266h3.831c1.146.008,2.09,1.2,2.156,2.725l.124,5.552c0,.832-.507,1.507-1.132,1.507l-4.653.144c-1.205.082-2.236-1.142-2.311-2.745v-4.706C394.37,267.073,395.249,265.976,396.305,266Z" transform="translate(238.165 138.77)" fill="#cc9f77"/>
    <path id="Path_1709" data-name="Path 1709" d="M379.133,272.744h10.035a2.1,2.1,0,0,0,1.861-2.064l.279-2.6a1.7,1.7,0,0,0-.26-1.116.936.936,0,0,0-.81-.452H378.3c-.591-.012-1.077.617-1.086,1.4v2.456a2.867,2.867,0,0,0,.59,1.721A1.61,1.61,0,0,0,379.133,272.744Z" transform="translate(228.738 139.312)" fill="#cc9f77"/>
    <path id="Path_1710" data-name="Path 1710" d="M379,269.061h11.09c.955.019,1.766-.926,1.877-2.188l.139-2.25a2.942,2.942,0,0,0-.548-1.88,1.615,1.615,0,0,0-1.421-.7l-11.245.7a2.214,2.214,0,0,0-1.784,2.415v1.548C377.152,268.048,377.994,269.1,379,269.061Z" transform="translate(228.682 134.554)" fill="#cc9f77"/>
    <path id="Path_1711" data-name="Path 1711" d="M375.111,276.973h9.306c.988.036,1.819-.978,1.877-2.291v-2.064a2.881,2.881,0,0,0-.536-1.778,1.605,1.605,0,0,0-1.34-.7h-9.43a1.625,1.625,0,0,0-1.341.713,2.908,2.908,0,0,0-.535,1.785V274.7c.082,1.361.978,2.377,2,2.27Z" transform="translate(226.478 143.175)" fill="#cc9f77"/>
    <path id="Path_1712" data-name="Path 1712" d="M373.161,273.687h3.366a1.629,1.629,0,0,0,1.33-.69,2.9,2.9,0,0,0,.562-1.746v-5.1c-.033-.777-.516-1.384-1.1-1.383h-4.281a1.63,1.63,0,0,0-1.353.727,2.925,2.925,0,0,0-.524,1.812l.2,4.128a2.155,2.155,0,0,0,1.8,2.25Z" transform="translate(225.403 137.461)" fill="#cc9f77"/>
    <path id="Path_1713" data-name="Path 1713" d="M378.721,266.743h-9.958a2.1,2.1,0,0,1-1.861-2.064l-.279-2.6a1.7,1.7,0,0,1,.267-1.1.934.934,0,0,1,.8-.446H379.62a.928.928,0,0,1,.76.389,1.652,1.652,0,0,1,.325.994v2.477a2.827,2.827,0,0,1-.612,1.745A1.567,1.567,0,0,1,378.721,266.743Z" transform="translate(222.9 132.95)" fill="#cc9f77"/>
    <path id="Path_1714" data-name="Path 1714" d="M348.467,263.8H337.393c-.957.029-1.772-.921-1.877-2.188l-.155-2.25a2.942,2.942,0,0,1,.548-1.88,1.615,1.615,0,0,1,1.421-.7l11.245.7a2.207,2.207,0,0,1,1.8,2.415v1.548C350.333,262.8,349.481,263.847,348.467,263.8Z" transform="translate(205.677 128.957)" fill="#cc9f77"/>
    <path id="Path_1715" data-name="Path 1715" d="M351.718,271.67h-9.306c-1,.036-1.834-.988-1.892-2.312V267.4a2.921,2.921,0,0,1,.546-1.765,1.641,1.641,0,0,1,1.331-.712h9.43a1.625,1.625,0,0,1,1.341.713,2.908,2.908,0,0,1,.535,1.785v2.064C353.6,270.807,352.717,271.778,351.718,271.67Z" transform="translate(208.521 137.621)" fill="#cc9f77"/>
    <path id="Path_1716" data-name="Path 1716" d="M339.688,273.687h-3.381a1.636,1.636,0,0,1-1.32-.7,2.9,2.9,0,0,1-.557-1.738l.078-5.1c.025-.782.513-1.395,1.1-1.383h4.358a1.648,1.648,0,0,1,1.348.733,2.944,2.944,0,0,1,.529,1.805l-.2,4.128c-.083,1.333-.951,2.333-1.954,2.25Z" transform="translate(205.165 137.461)" fill="#cc9f77"/>
    <path id="Path_1717" data-name="Path 1717" d="M130.24,59.58H316.253v12.9H130.24c-1.927,0-3.49-2.079-3.49-4.644V64.224C126.75,61.659,128.312,59.58,130.24,59.58Z" transform="translate(90.731 67.207)" fill="#fad4ae"/>
    <rect id="Rectangle_819" data-name="Rectangle 819" width="186.121" height="8.607" transform="translate(220.862 139.687)" fill="#892c1d" opacity="0.5"/>
    <rect id="Rectangle_820" data-name="Rectangle 820" width="82.452" height="1.589" transform="translate(138.411 285.469)" fill="#892c1d" opacity="0.5"/>
    <rect id="Rectangle_821" data-name="Rectangle 821" width="56.674" height="2.064" transform="translate(720.505 384.729)" fill="#314755"/>
    <path id="Path_1779" data-name="Path 1779" d="M0,.068,39.054-.027l-.005,1.551L0,1.619Z" transform="translate(726.494 424.792) rotate(-89.44)" fill="#314755"/>
    <rect id="Rectangle_823" data-name="Rectangle 823" width="1.551" height="38.639" transform="translate(733.844 386.173)" fill="#314755"/>
    <rect id="Rectangle_824" data-name="Rectangle 824" width="1.551" height="38.577" transform="translate(740.11 386.235)" fill="#314755"/>
    <path id="Path_1780" data-name="Path 1780" d="M0,.055,39.054-.022l0,1.551L0,1.606Z" transform="translate(756.708 424.836) rotate(-89.55)" fill="#314755"/>
    <rect id="Rectangle_826" data-name="Rectangle 826" width="1.551" height="38.639" transform="translate(763.949 386.173)" fill="#314755"/>
    <rect id="Rectangle_827" data-name="Rectangle 827" width="1.551" height="38.577" transform="translate(770.215 386.235)" fill="#314755"/>
    <rect id="Rectangle_828" data-name="Rectangle 828" width="5.94" height="15.831" rx="0.87" transform="translate(487.745 354.346)" fill="#20111d" opacity="0.5"/>
    <rect id="Rectangle_829" data-name="Rectangle 829" width="5.94" height="15.831" rx="0.87" transform="translate(487.745 350.218)" fill="#fad4ae"/>
    <rect id="Rectangle_830" data-name="Rectangle 830" width="5.94" height="15.831" rx="0.87" transform="translate(452.677 354.346)" fill="#20111d" opacity="0.5"/>
    <rect id="Rectangle_831" data-name="Rectangle 831" width="5.94" height="15.831" rx="0.87" transform="translate(452.677 350.218)" fill="#fad4ae"/>
    <path id="Path_1718" data-name="Path 1718" d="M90.708,179.351l9.306-1.073c1.861-.206,3.955-.33,5.367,1.3a10.244,10.244,0,0,1,1.473,6.915,22.752,22.752,0,0,0,.155,7.41c1.411,4.995,6.592,6.77,10.159,6.729,0-2.188.186-23.468.791-23.571a15.555,15.555,0,0,1-8.282-.7,5.479,5.479,0,0,1-3.1-2.332c-1.148-2.064-.729-4.912-1.024-7.43-.7-4.126-2.97-7.462-5.987-8.793a15.053,15.053,0,0,0-9.306-.846A196.036,196.036,0,0,0,90.708,179.351Z" transform="translate(70.549 22.339)" fill="#fc8e78"/>
    <rect id="Rectangle_832" data-name="Rectangle 832" width="2.032" height="61.776" transform="translate(157.891 178.966)" fill="#a46b58"/>
    <path id="Path_1719" data-name="Path 1719" d="M294.285,113.232l9.306-1.073c1.861-.206,3.94-.33,5.351,1.3a10.246,10.246,0,0,1,1.473,6.935,23.082,23.082,0,0,0,.155,7.389c1.411,5.016,6.607,6.791,10.159,6.729,0-2.064.2-23.447.791-23.571a15.346,15.346,0,0,1-8.282-.7,5.434,5.434,0,0,1-3.1-2.332c-1.163-2.064-.729-4.912-1.039-7.431-.687-4.126-2.956-7.467-5.971-8.793a14.909,14.909,0,0,0-9.229-.826,192.3,192.3,0,0,0,.388,22.374Z" transform="translate(182.743 -47.994)" fill="#fc8e78"/>
    <rect id="Rectangle_833" data-name="Rectangle 833" width="2.032" height="61.776" transform="translate(473.646 42.513)" fill="#a46b58"/>
    <path id="Path_1720" data-name="Path 1720" d="M492.985,128.051l9.306-1.073c1.861-.206,3.94-.33,5.351,1.3a10.193,10.193,0,0,1,1.551,6.915,23.194,23.194,0,0,0,.155,7.41c1.411,4.995,6.607,6.77,10.159,6.729,0-2.188.2-23.468.791-23.571a15.566,15.566,0,0,1-8.282-.7,5.39,5.39,0,0,1-3.1-2.332c-1.163-2.064-.729-4.912-1.039-7.43-.687-4.126-2.956-7.467-5.971-8.793a15.065,15.065,0,0,0-9.306-.846,192.538,192.538,0,0,0,.388,22.395Z" transform="translate(292.229 -32.245)" fill="#fc8e78"/>
    <rect id="Rectangle_834" data-name="Rectangle 834" width="2.032" height="61.776" transform="translate(781.832 73.081)" fill="#a46b58"/>
    <rect id="Rectangle_835" data-name="Rectangle 835" width="20.504" height="73.727" transform="translate(423.626 134.857)" fill="#333b4e"/>
    <path id="Path_1721" data-name="Path 1721" d="M281.215,210.521H259.16V134.73h22.055Zm-20.5-2.064h18.953V136.794H260.711Z" transform="translate(163.691 -0.905)" fill="#00232d"/>
    <rect id="Rectangle_836" data-name="Rectangle 836" width="20.504" height="73.727" transform="translate(423.626 216.717)" fill="#333b4e"/>
    <path id="Path_1722" data-name="Path 1722" d="M281.215,250.181H259.16V174.39h22.055Zm-20.5-2.064h18.953V176.454H260.711Z" transform="translate(163.691 41.295)" fill="#00232d"/>
    <rect id="Rectangle_837" data-name="Rectangle 837" width="20.504" height="73.727" transform="translate(449.295 134.857)" fill="#333b4e"/>
    <path id="Path_1723" data-name="Path 1723" d="M297.765,210.521H275.71V134.73h22.055Zm-20.5-2.064h18.953V136.794H277.261Z" transform="translate(172.81 -0.905)" fill="#00232d"/>
    <rect id="Rectangle_838" data-name="Rectangle 838" width="20.504" height="73.727" transform="translate(449.295 216.717)" fill="#333b4e"/>
    <path id="Path_1724" data-name="Path 1724" d="M297.765,250.181H275.71V174.39h22.055Zm-20.5-2.064h18.953V176.454H277.261Z" transform="translate(172.81 41.295)" fill="#00232d"/>
    <rect id="Rectangle_839" data-name="Rectangle 839" width="20.504" height="73.727" transform="translate(474.965 134.857)" fill="#333b4e"/>
    <path id="Path_1725" data-name="Path 1725" d="M314.315,210.521H292.26V134.73h22.055Zm-20.5-2.064h18.953V136.794H293.811Z" transform="translate(181.929 -0.905)" fill="#00232d"/>
    <rect id="Rectangle_840" data-name="Rectangle 840" width="20.504" height="73.727" transform="translate(474.965 216.717)" fill="#333b4e"/>
    <path id="Path_1726" data-name="Path 1726" d="M314.315,250.181H292.26V174.39h22.055Zm-20.5-2.064h18.953V176.454H293.811Z" transform="translate(181.929 41.295)" fill="#00232d"/>
    <rect id="Rectangle_841" data-name="Rectangle 841" width="20.504" height="73.727" transform="translate(500.649 134.857)" fill="#333b4e"/>
    <path id="Path_1727" data-name="Path 1727" d="M330.813,210.521H308.82V134.73h21.993Zm-20.5-2.064h18.953V136.794H310.371Z" transform="translate(191.054 -0.905)" fill="#00232d"/>
    <rect id="Rectangle_842" data-name="Rectangle 842" width="20.504" height="73.727" transform="translate(500.649 216.717)" fill="#333b4e"/>
    <path id="Path_1728" data-name="Path 1728" d="M330.813,250.181H308.82V174.39h21.993Zm-20.5-2.064h18.953V176.454H310.371Z" transform="translate(191.054 41.295)" fill="#00232d"/>
    <g id="Group_1194" data-name="Group 1194" transform="translate(423.083 134.217)" opacity="0.35">
      <path id="Path_1729" data-name="Path 1729" d="M318.327,177.888,329.51,102.84H322L310.82,177.888Z" transform="translate(-230.927 -20.981)" fill="#90f7d3"/>
      <path id="Path_1730" data-name="Path 1730" d="M309,164.4l9.647-61.549h-3.04L309,145.039Z" transform="translate(-231.93 -20.97)" fill="#90f7d3"/>
      <path id="Path_1731" data-name="Path 1731" d="M301.772,177.888l11.183-75.048h-7.507l-11.2,75.048Z" transform="translate(-240.058 -20.981)" fill="#90f7d3"/>
      <path id="Path_1732" data-name="Path 1732" d="M292.44,164.4l9.632-61.549h-3.024l-6.607,42.189Z" transform="translate(-241.055 -20.97)" fill="#90f7d3"/>
      <path id="Path_1733" data-name="Path 1733" d="M285.2,177.888l11.2-75.048h-7.507l-11.2,75.048Z" transform="translate(-249.182 -20.981)" fill="#90f7d3"/>
      <path id="Path_1734" data-name="Path 1734" d="M275.87,164.4l9.647-61.549h-3.04l-6.607,42.189Z" transform="translate(-250.185 -20.97)" fill="#90f7d3"/>
      <path id="Path_1735" data-name="Path 1735" d="M268.637,177.888,279.82,102.84h-7.507L261.13,177.888Z" transform="translate(-258.307 -20.981)" fill="#90f7d3"/>
      <path id="Path_1736" data-name="Path 1736" d="M259.31,164.4l9.647-61.549h-3.04l-6.607,42.189Z" transform="translate(-259.31 -20.97)" fill="#90f7d3"/>
      <path id="Path_1737" data-name="Path 1737" d="M318.327,138.207,329.51,63.18H322L310.82,138.207Z" transform="translate(-230.927 -63.18)" fill="#90f7d3"/>
      <path id="Path_1738" data-name="Path 1738" d="M309,124.75l9.647-61.57h-3.04L309,105.369Z" transform="translate(-231.93 -63.18)" fill="#90f7d3"/>
      <path id="Path_1739" data-name="Path 1739" d="M301.772,138.207,312.955,63.18h-7.507l-11.2,75.027Z" transform="translate(-240.058 -63.18)" fill="#90f7d3"/>
      <path id="Path_1740" data-name="Path 1740" d="M292.44,124.75l9.632-61.57h-3.024l-6.607,42.189Z" transform="translate(-241.055 -63.18)" fill="#90f7d3"/>
      <path id="Path_1741" data-name="Path 1741" d="M285.2,138.207,296.4,63.18h-7.507l-11.2,75.027Z" transform="translate(-249.182 -63.18)" fill="#90f7d3"/>
      <path id="Path_1742" data-name="Path 1742" d="M275.87,124.75l9.647-61.57h-3.04l-6.607,42.189Z" transform="translate(-250.185 -63.18)" fill="#90f7d3"/>
      <path id="Path_1743" data-name="Path 1743" d="M268.637,138.207,279.82,63.18h-7.507L261.13,138.207Z" transform="translate(-258.307 -63.18)" fill="#90f7d3"/>
      <path id="Path_1744" data-name="Path 1744" d="M259.31,124.75l9.647-61.57h-3.04l-6.607,42.189Z" transform="translate(-259.31 -63.18)" fill="#90f7d3"/>
    </g>
    <path id="Path_1745" data-name="Path 1745" d="M266.172,217.214a.454.454,0,0,1,.075-.3.248.248,0,0,1,.22-.115h1.923a.242.242,0,0,1,.23.106.451.451,0,0,1,.08.307v19.01c0,.248-.093.392-.31.392h-1.923a.228.228,0,0,1-.22-.1.426.426,0,0,1-.075-.292v-7.885H263.8v7.885a.426.426,0,0,1-.075.292.228.228,0,0,1-.22.1h-1.923c-.217,0-.31-.144-.31-.392v-19.01a.451.451,0,0,1,.08-.307.242.242,0,0,1,.23-.106H263.5a.248.248,0,0,1,.22.115.453.453,0,0,1,.075.3v7.864h2.373Z" transform="translate(164.853 86.419)" fill="#814a45"/>
    <path id="Path_1746" data-name="Path 1746" d="M269.5,216.8a.248.248,0,0,1,.22.115.453.453,0,0,1,.075.3v19.01a.426.426,0,0,1-.075.292.228.228,0,0,1-.22.1h-1.939a.228.228,0,0,1-.22-.1.426.426,0,0,1-.075-.292v-19.01a.453.453,0,0,1,.075-.3.248.248,0,0,1,.22-.115Z" transform="translate(168.159 86.42)" fill="#814a45"/>
    <path id="Path_1747" data-name="Path 1747" d="M270.112,220.383a3.888,3.888,0,0,1,.686-2.658,2.08,2.08,0,0,1,2-.912h2.451a2.1,2.1,0,0,1,1.991.921,3.908,3.908,0,0,1,.692,2.649v2.58a.444.444,0,0,1-.086.292.24.24,0,0,1-.224.1h-1.861a.228.228,0,0,1-.22-.1.426.426,0,0,1-.075-.292v-1.878a1.078,1.078,0,0,0-.19-.738.577.577,0,0,0-.554-.253h-1.334a.56.56,0,0,0-.562.243,1.058,1.058,0,0,0-.183.747v11.29a1.078,1.078,0,0,0,.19.738.577.577,0,0,0,.554.253h1.334a.577.577,0,0,0,.554-.253,1.078,1.078,0,0,0,.19-.738v-3.323H274.5a.228.228,0,0,1-.22-.1.426.426,0,0,1-.075-.292v-2.477c0-.289.093-.392.295-.392h3.1c.186,0,.31,0,.31.392v6.873a3.908,3.908,0,0,1-.692,2.649,2.1,2.1,0,0,1-1.991.922H272.78a2.08,2.08,0,0,1-2-.912,3.888,3.888,0,0,1-.686-2.658Z" transform="translate(169.707 86.407)" fill="#814a45"/>
    <path id="Path_1748" data-name="Path 1748" d="M281.225,217.216a.471.471,0,0,1,.086-.3.26.26,0,0,1,.224-.114h1.908a.237.237,0,0,1,.241.1.449.449,0,0,1,.084.316v19.01c0,.248-.093.392-.326.392h-1.908a.24.24,0,0,1-.224-.1.444.444,0,0,1-.086-.292v-7.885H278.9v7.885a.427.427,0,0,1-.075.292.228.228,0,0,1-.22.1h-1.923c-.217,0-.31-.144-.31-.392v-19.01a.451.451,0,0,1,.08-.307.242.242,0,0,1,.23-.106H278.6a.247.247,0,0,1,.22.115.453.453,0,0,1,.075.3v7.864h2.373Z" transform="translate(173.173 86.417)" fill="#814a45"/>
    <path id="Path_1749" data-name="Path 1749" d="M293.119,216.813a2.068,2.068,0,0,1,1.994.912,3.87,3.87,0,0,1,.674,2.658v2.621c0,.248-.077.392-.295.392h-1.923a.24.24,0,0,1-.224-.1.444.444,0,0,1-.086-.292v-1.92a1.058,1.058,0,0,0-.183-.747.56.56,0,0,0-.562-.243h-.884a.577.577,0,0,0-.554.253,1.078,1.078,0,0,0-.19.738v3.406l4.42,1.94a.884.884,0,0,1,.481.908v5.717a3.87,3.87,0,0,1-.674,2.658,2.068,2.068,0,0,1-1.994.912h-2.094a2.085,2.085,0,0,1-1.987-.922,3.89,3.89,0,0,1-.681-2.649v-2.6a.427.427,0,0,1,.075-.292.228.228,0,0,1,.22-.1h1.939a.228.228,0,0,1,.22.1.426.426,0,0,1,.075.292v1.92a1.078,1.078,0,0,0,.19.738.577.577,0,0,0,.554.253h.853a.56.56,0,0,0,.562-.243,1.058,1.058,0,0,0,.183-.747v-3.3l-4.4-1.94a.875.875,0,0,1-.5-.908v-5.841a3.89,3.89,0,0,1,.681-2.649,2.085,2.085,0,0,1,1.987-.922Z" transform="translate(179.752 86.407)" fill="#814a45"/>
    <path id="Path_1750" data-name="Path 1750" d="M301.784,223.152a.426.426,0,0,1-.075.292.228.228,0,0,1-.22.1h-1.861c-.217,0-.31-.145-.31-.392v-2.064a1.059,1.059,0,0,0-.183-.747.56.56,0,0,0-.562-.243h-.962a.56.56,0,0,0-.562.243,1.059,1.059,0,0,0-.183.747v11.29a1.078,1.078,0,0,0,.19.738.577.577,0,0,0,.554.253h.962a.56.56,0,0,0,.562-.243,1.059,1.059,0,0,0,.183-.747v-2.064a.451.451,0,0,1,.08-.307.242.242,0,0,1,.23-.106h1.923a.248.248,0,0,1,.22.115.453.453,0,0,1,.075.3v2.663a3.888,3.888,0,0,1-.686,2.658,2.08,2.08,0,0,1-2,.912h-2.078a2.092,2.092,0,0,1-2-.912,3.905,3.905,0,0,1-.7-2.658V220.3a3.9,3.9,0,0,1,.7-2.658,2.092,2.092,0,0,1,2-.912h2.078a2.08,2.08,0,0,1,2,.912,3.888,3.888,0,0,1,.686,2.658Z" transform="translate(183.091 86.322)" fill="#814a45"/>
    <path id="Path_1751" data-name="Path 1751" d="M305.256,217.216a.453.453,0,0,1,.075-.3.248.248,0,0,1,.22-.115h1.908a.237.237,0,0,1,.241.1.449.449,0,0,1,.084.316v19.01c0,.248-.093.392-.326.392h-1.908a.228.228,0,0,1-.22-.1.426.426,0,0,1-.075-.292v-7.885H302.9v7.885a.426.426,0,0,1-.075.292.228.228,0,0,1-.22.1h-1.923c-.217,0-.31-.144-.31-.392v-19.01a.451.451,0,0,1,.08-.307.242.242,0,0,1,.23-.106H302.6a.248.248,0,0,1,.22.115.453.453,0,0,1,.075.3v7.864h2.389Z" transform="translate(186.397 86.417)" fill="#814a45"/>
    <path id="Path_1752" data-name="Path 1752" d="M306.357,220.383a3.888,3.888,0,0,1,.686-2.658,2.08,2.08,0,0,1,2-.912h2.078a2.08,2.08,0,0,1,2,.912,3.888,3.888,0,0,1,.686,2.658v12.673a3.887,3.887,0,0,1-.686,2.658,2.08,2.08,0,0,1-2,.912H309.04a2.08,2.08,0,0,1-2-.912,3.888,3.888,0,0,1-.686-2.658Zm4.3,13.045a.56.56,0,0,0,.562-.243,1.058,1.058,0,0,0,.183-.747V221a1.078,1.078,0,0,0-.19-.738.577.577,0,0,0-.554-.253h-1.086a.577.577,0,0,0-.554.253,1.078,1.078,0,0,0-.19.738v11.435a1.058,1.058,0,0,0,.183.747.56.56,0,0,0,.562.243Z" transform="translate(189.686 86.407)" fill="#814a45"/>
    <path id="Path_1753" data-name="Path 1753" d="M312.357,220.383a3.888,3.888,0,0,1,.686-2.658,2.08,2.08,0,0,1,2-.912h2.078a2.08,2.08,0,0,1,2,.912,3.888,3.888,0,0,1,.686,2.658v12.673a3.888,3.888,0,0,1-.686,2.658,2.08,2.08,0,0,1-2,.912H315.04a2.08,2.08,0,0,1-2-.912,3.888,3.888,0,0,1-.686-2.658Zm4.3,13.045a.559.559,0,0,0,.562-.243,1.058,1.058,0,0,0,.183-.747V221a1.078,1.078,0,0,0-.19-.738.577.577,0,0,0-.554-.253h-1.086a.577.577,0,0,0-.554.253,1.078,1.078,0,0,0-.19.738v11.435a1.058,1.058,0,0,0,.183.747.56.56,0,0,0,.562.243Z" transform="translate(192.992 86.407)" fill="#814a45"/>
    <path id="Path_1754" data-name="Path 1754" d="M320.9,233.354h4.42c.217,0,.31.144.31.392v2.477c0,.268-.093.392-.31.392h-6.654a.228.228,0,0,1-.22-.1.426.426,0,0,1-.075-.292v-19.01a.453.453,0,0,1,.075-.3.248.248,0,0,1,.22-.115H320.6a.248.248,0,0,1,.22.115.453.453,0,0,1,.075.3Z" transform="translate(196.315 86.42)" fill="#814a45"/>
    <rect id="Rectangle_843" data-name="Rectangle 843" width="2.823" height="12.776" transform="translate(366.782 412.139)" fill="#653e36"/>
    <rect id="Rectangle_844" data-name="Rectangle 844" width="2.823" height="12.776" transform="translate(358.778 412.139)" fill="#653e36"/>
    <rect id="Rectangle_845" data-name="Rectangle 845" width="2.823" height="12.776" transform="translate(329.418 412.139)" fill="#653e36"/>
    <rect id="Rectangle_846" data-name="Rectangle 846" width="2.823" height="12.776" transform="translate(323.57 412.139)" fill="#653e36"/>
    <ellipse id="Ellipse_84" data-name="Ellipse 84" cx="23.017" cy="26.523" rx="23.017" ry="26.523" transform="translate(341.609 362.932)" fill="#96e792"/>
    <path id="Path_1755" data-name="Path 1755" d="M252.814,270.763c0,14.634-10.3,26.5-23.017,26.5s-23.017-11.868-23.017-26.5c0-10.32,5.134-19.257,12.625-23.633-3.414,3.378-5.485,8.643-5.624,14.3a21.713,21.713,0,0,0,4.91,14.76,4.772,4.772,0,0,1,3.024-2.6c4.033-.867,6.638,1.465,7.755,4.933a8.779,8.779,0,0,1,.31,3.942c.589,0,1.194.124,1.8.124,9.849,0,17.821-9.206,17.821-20.537a23.485,23.485,0,0,0-1.086-7A29,29,0,0,1,252.814,270.763Zm-10.857,3.674v-.846a1.629,1.629,0,0,0-1.877-1.631h0c-1.246-.373-2.523.426-3.1,1.94a4.577,4.577,0,0,0,.248,3.715,1.782,1.782,0,0,0,1.163,1.156h.124a2.376,2.376,0,0,0,1.66.144,3.431,3.431,0,0,0,1.97-3.509,4.127,4.127,0,0,0-.171-.97Z" transform="translate(134.829 118.692)" fill="#43c081"/>
    <ellipse id="Ellipse_85" data-name="Ellipse 85" cx="18.255" cy="21.012" rx="18.255" ry="21.012" transform="translate(309.317 373.934)" fill="#96e792"/>
    <path id="Path_1756" data-name="Path 1756" d="M222.449,270.9c0,11.6-8.174,21.012-18.255,21.012S186,282.5,186,270.9c0-8.256,4.064-15.274,10-18.741a17.983,17.983,0,0,0-.558,23.055,3.729,3.729,0,0,1,2.389-2.064c2.51-.951,5.162.717,6.2,3.9a6.693,6.693,0,0,1,.248,3.117h1.442c7.755,0,14.114-7.286,14.114-16.265a18.65,18.65,0,0,0-.853-5.573,23.256,23.256,0,0,1,3.459,12.57Zm-8.531,2.91v-.66a1.653,1.653,0,0,0-1.1-1.3h-.434a2.074,2.074,0,0,0-2.389,1.527,3.6,3.6,0,0,0,.2,2.952,1.344,1.344,0,0,0,.915.908h.093a1.82,1.82,0,0,0,1.318.124,2.758,2.758,0,0,0,1.551-2.786A5.248,5.248,0,0,0,213.918,273.812Z" transform="translate(123.379 124.044)" fill="#43c081"/>
    <rect id="Rectangle_847" data-name="Rectangle 847" width="2.823" height="12.776" transform="translate(278.281 412.139)" fill="#653e36"/>
    <rect id="Rectangle_848" data-name="Rectangle 848" width="2.823" height="12.776" transform="translate(270.278 412.139)" fill="#653e36"/>
    <rect id="Rectangle_849" data-name="Rectangle 849" width="2.823" height="12.776" transform="translate(240.933 412.139)" fill="#653e36"/>
    <rect id="Rectangle_850" data-name="Rectangle 850" width="2.823" height="12.776" transform="translate(235.07 412.139)" fill="#653e36"/>
    <ellipse id="Ellipse_86" data-name="Ellipse 86" cx="23.017" cy="26.523" rx="23.017" ry="26.523" transform="translate(253.108 362.932)" fill="#96e792"/>
    <path id="Path_1757" data-name="Path 1757" d="M195.754,270.763c0,14.634-10.3,26.5-23.017,26.5s-23.017-11.868-23.017-26.5c0-10.32,5.134-19.257,12.625-23.633-3.484,3.577-5.556,9.068-5.63,14.923a22.088,22.088,0,0,0,4.932,14.139,4.623,4.623,0,0,1,3.009-2.6c4.033-.867,6.654,1.465,7.755,4.933a8.778,8.778,0,0,1,.31,3.942c.6,0,1.194.124,1.815.124,9.833,0,17.806-9.206,17.806-20.537a23,23,0,0,0-1.086-7,29,29,0,0,1,4.5,15.707ZM184.9,274.437v-.846a1.629,1.629,0,0,0-1.877-1.631h0c-1.246-.373-2.523.426-3.1,1.94a4.574,4.574,0,0,0,.264,3.715,1.69,1.69,0,0,0,1.148,1.156h.124a2.376,2.376,0,0,0,1.66.144,3.444,3.444,0,0,0,1.985-3.509,7.554,7.554,0,0,0-.171-.97Z" transform="translate(103.388 118.692)" fill="#43c081"/>
    <ellipse id="Ellipse_87" data-name="Ellipse 87" cx="18.255" cy="21.012" rx="18.255" ry="21.012" transform="translate(220.816 373.934)" fill="#96e792"/>
    <path id="Path_1758" data-name="Path 1758" d="M165.405,270.9c0,11.6-8.174,21.012-18.255,21.012S128.91,282.5,128.91,270.9c0-8.256,4.064-15.274,10-18.741a17.983,17.983,0,0,0-.558,23.055,3.729,3.729,0,0,1,2.389-2.064c2.51-.941,5.157.724,6.2,3.9a7.133,7.133,0,0,1,.248,3.117h1.427c7.755,0,14.114-7.286,14.114-16.265a18.652,18.652,0,0,0-.853-5.573,23.2,23.2,0,0,1,3.521,12.57Zm-8.593,2.91v-.66a1.662,1.662,0,0,0-1.086-1.3h-.45a2.088,2.088,0,0,0-2.389,1.527,3.651,3.651,0,0,0,.2,2.952,1.344,1.344,0,0,0,.915.908h.093a1.832,1.832,0,0,0,1.318.124,2.736,2.736,0,0,0,1.551-2.786A5.239,5.239,0,0,0,156.813,273.812Z" transform="translate(91.921 124.044)" fill="#43c081"/>
    <rect id="Rectangle_851" data-name="Rectangle 851" width="2.823" height="12.776" transform="translate(571.996 424.915) rotate(180)" fill="#653e36"/>
    <rect id="Rectangle_852" data-name="Rectangle 852" width="2.823" height="12.776" transform="translate(579.984 424.915) rotate(180)" fill="#653e36"/>
    <rect id="Rectangle_853" data-name="Rectangle 853" width="2.823" height="12.776" transform="translate(609.344 424.915) rotate(180)" fill="#653e36"/>
    <rect id="Rectangle_854" data-name="Rectangle 854" width="2.823" height="12.776" transform="translate(615.207 424.915) rotate(180)" fill="#653e36"/>
    <ellipse id="Ellipse_88" data-name="Ellipse 88" cx="23.017" cy="26.523" rx="23.017" ry="26.523" transform="translate(551.119 362.932)" fill="#96e792"/>
    <path id="Path_1759" data-name="Path 1759" d="M346.368,255.086a23.015,23.015,0,0,0-1.1,7c0,11.331,7.988,20.537,17.821,20.537a8.723,8.723,0,0,0,1.8-.124,9.02,9.02,0,0,1,.326-3.942c1.1-3.468,3.707-5.8,7.755-4.933a4.772,4.772,0,0,1,3.025,2.6,21.705,21.705,0,0,0,4.918-14.755c-.136-5.659-2.2-10.926-5.616-14.307,7.476,4.376,12.61,13.292,12.61,23.633,0,14.634-10.3,26.5-23.017,26.5s-23.017-11.868-23.017-26.5A29.026,29.026,0,0,1,346.368,255.086Zm6.2,20.289a3.431,3.431,0,0,0,1.97,3.509,2.467,2.467,0,0,0,1.675-.145h.109a1.681,1.681,0,0,0,1.163-1.156,4.63,4.63,0,0,0,.264-3.715c-.583-1.509-1.857-2.306-3.1-1.94h0a1.629,1.629,0,0,0-1.877,1.631,7.883,7.883,0,0,0,0,.846,5.157,5.157,0,0,0-.217.908Z" transform="translate(209.265 118.724)" fill="#43c081"/>
    <ellipse id="Ellipse_89" data-name="Ellipse 89" cx="18.255" cy="21.012" rx="18.255" ry="21.012" transform="translate(592.935 373.934)" fill="#96e792"/>
    <path id="Path_1760" data-name="Path 1760" d="M372.375,258.381a18.282,18.282,0,0,0-.869,5.573c0,8.978,6.328,16.265,14.13,16.265h1.427a7.135,7.135,0,0,1,.248-3.117c1.042-3.184,3.694-4.852,6.2-3.9a3.72,3.72,0,0,1,2.4,2.064,17.255,17.255,0,0,0,3.89-11.706,16.668,16.668,0,0,0-4.448-11.349c5.925,3.468,10,10.547,10,18.741,0,11.6-8.174,21.012-18.255,21.012s-18.24-9.412-18.24-21.012a23.21,23.21,0,0,1,3.505-12.57Zm4.9,16.1a2.781,2.781,0,0,0,1.551,2.787,1.868,1.868,0,0,0,1.334-.124h.093a1.378,1.378,0,0,0,.915-.908,3.651,3.651,0,0,0,.2-2.952,2.1,2.1,0,0,0-2.4-1.527h-.434a1.653,1.653,0,0,0-1.1,1.3,4.754,4.754,0,0,0,0,.661A3.587,3.587,0,0,0,377.276,274.481Z" transform="translate(224.142 124.097)" fill="#43c081"/>
    <rect id="Rectangle_855" data-name="Rectangle 855" width="2.823" height="12.776" transform="translate(660.481 424.915) rotate(180)" fill="#653e36"/>
    <rect id="Rectangle_856" data-name="Rectangle 856" width="2.823" height="12.776" transform="translate(668.5 424.915) rotate(180)" fill="#653e36"/>
    <rect id="Rectangle_857" data-name="Rectangle 857" width="2.823" height="12.776" transform="translate(697.829 424.915) rotate(180)" fill="#653e36"/>
    <rect id="Rectangle_858" data-name="Rectangle 858" width="2.823" height="12.776" transform="translate(703.692 424.915) rotate(180)" fill="#653e36"/>
    <ellipse id="Ellipse_90" data-name="Ellipse 90" cx="23.017" cy="26.523" rx="23.017" ry="26.523" transform="translate(639.62 362.932)" fill="#96e792"/>
    <path id="Path_1761" data-name="Path 1761" d="M403.418,255.086a23.483,23.483,0,0,0-1.086,7c0,11.331,7.972,20.537,17.821,20.537a8.723,8.723,0,0,0,1.8-.124,8.779,8.779,0,0,1,.31-3.942c1.117-3.468,3.722-5.8,7.755-4.933a4.772,4.772,0,0,1,3.025,2.6,22.152,22.152,0,0,0,4.917-14.139c-.075-5.85-2.14-11.338-5.615-14.923,7.476,4.376,12.61,13.292,12.61,23.633,0,14.634-10.3,26.5-23.017,26.5s-23.017-11.868-23.017-26.5A29.154,29.154,0,0,1,403.418,255.086Zm6.2,20.289a3.431,3.431,0,0,0,1.97,3.509,2.467,2.467,0,0,0,1.675-.145h.109a1.681,1.681,0,0,0,1.163-1.156,4.577,4.577,0,0,0,.248-3.715,2.649,2.649,0,0,0-3.024-1.94h0a1.629,1.629,0,0,0-1.877,1.631,7.86,7.86,0,0,0,0,.846,3.914,3.914,0,0,0-.264.908Z" transform="translate(240.7 118.724)" fill="#43c081"/>
    <ellipse id="Ellipse_91" data-name="Ellipse 91" cx="18.255" cy="21.012" rx="18.255" ry="21.012" transform="translate(681.435 373.934)" fill="#96e792"/>
    <path id="Path_1762" data-name="Path 1762" d="M429.441,258.381a18.287,18.287,0,0,0-.868,5.573c0,8.978,6.328,16.265,14.13,16.265h1.427a7.134,7.134,0,0,1,.248-3.117c1.042-3.184,3.694-4.851,6.2-3.9a3.729,3.729,0,0,1,2.389,2.064,18.007,18.007,0,0,0-.543-23.055c5.925,3.468,10,10.547,10,18.741,0,11.6-8.174,21.012-18.255,21.012s-18.255-9.412-18.255-21.012a23.22,23.22,0,0,1,3.521-12.57Zm4.9,16.1a2.758,2.758,0,0,0,1.551,2.786,1.82,1.82,0,0,0,1.318-.124h.093a1.4,1.4,0,0,0,.931-.908,3.651,3.651,0,0,0,.2-2.951,2.1,2.1,0,0,0-2.4-1.527H435.6a1.653,1.653,0,0,0-1.1,1.3v.66A5.254,5.254,0,0,0,434.342,274.481Z" transform="translate(255.577 124.097)" fill="#43c081"/>
  </g>
</svg>
