<svg id="horse-riding" xmlns="http://www.w3.org/2000/svg" width="72.075" height="69.67" viewBox="0 0 72.075 69.67">
  <g id="Group_216" data-name="Group 216" transform="translate(0 27.743)">
    <path id="Path_575" data-name="Path 575" d="M53.045,210.81l3.353-7.628a10.018,10.018,0,0,1-1.817-.264c-3.5-.878-6.117-3.631-7.933-6.6H43.191a5.433,5.433,0,0,1-.687,4.5l-6.852,10.449a5.47,5.47,0,1,1-9.147-6l3.368-5.139-3.88-1.789a5.421,5.421,0,0,1-2.309-2.019H21.418a9.479,9.479,0,0,0-6.192,2.332c-2.33-1.6-10.9-6.718-13.676,2.716-2.9,9.865,3.778,11.543-1.3,16.015a.75.75,0,0,0,.737,1.274c2.409-.815,5.635-3.338,6.791-10.847.779-5.071,3.276-6.852,5.4-6.695a9.436,9.436,0,0,0,1.471,11.506L11,218.2l-.194.294a2.438,2.438,0,0,0-.394,1.468l.879,15.976a1.766,1.766,0,0,0,3.5.22l1.757-9.589,2.816,9.763a1.767,1.767,0,0,0,3.463-.569l-.642-14.3,4.164-6.031H39.79l2.781,5.563-2.25,14.57a1.893,1.893,0,0,0,3.638.971l4.623-11.966,2.29,11.705a1.809,1.809,0,0,0,3.581-.45Z" transform="translate(0.002 -195.819)" fill="#2cc29b"/>
  </g>
  <path id="Path_576" data-name="Path 576" d="M233.509,17.25a4.556,4.556,0,1,0-4.557-4.556A4.555,4.555,0,0,0,233.509,17.25Z" transform="translate(-195.109 -8.138)" fill="#2cc29b"/>
  <g id="Group_217" data-name="Group 217" transform="translate(25.24 4.869)">
    <path id="Path_577" data-name="Path 577" d="M216.409,55.367,208.1,48.4l.708-6.578a.676.676,0,0,0-1.139-.561l-3.81,3.645-2.715,6.078-4.3,6.456c1.236,3.119,3.032,6.054,5.024,6.55a5.02,5.02,0,0,0,3.735-1.078l1.625-3.7,4.112,1.838c-3.839,4.221-7.228,6.01-10.061,5.29-4.311-1.078-6.928-7.933-7.926-11.785a1.984,1.984,0,0,0-.007-1.253,2.032,2.032,0,0,0-2.6-1.212l-5.35,1.952-1.81-3.992,0-.005a3.411,3.411,0,0,0-2.026-4.417l-.375-.136a3.412,3.412,0,0,0-4.28,1.821c-1.309,2.931-3.479,7.751-5.87,12.907a3.045,3.045,0,0,0,1.49,4.041l6.435,2.968-4.912,7.492a3.045,3.045,0,0,0,5.092,3.341l6.853-10.448c.487-.74,1.235-3.287-1.115-4.356-1.528-.7-5.318-2.463-5.318-2.463l2-5.356c1,2.21,1.333,3.175,2.539,3.175,1.148,0,3.121-.887,7.2-2.4,1.153,3.945,3.956,11.118,9.382,12.479a7.508,7.508,0,0,0,1.831.226c3.47,0,7.26-2.375,11.3-7.025a3.249,3.249,0,0,0,3.162-1.938l.325-.725A3.3,3.3,0,0,0,216.409,55.367Z" transform="translate(-170.751 -41.077)" fill="#2cc29b"/>
  </g>
</svg>
