<svg xmlns="http://www.w3.org/2000/svg" xmlns:xlink="http://www.w3.org/1999/xlink" width="516.641" height="384.886" viewBox="0 0 516.641 384.886">
  <defs>
    <linearGradient id="linear-gradient" y1="0.5" x2="1" y2="0.5" gradientUnits="objectBoundingBox">
      <stop offset="0" stop-color="#dae3fe"/>
      <stop offset="1" stop-color="#e9effd"/>
    </linearGradient>
    <linearGradient id="linear-gradient-2" x1="0" y1="0.498" x2="1" y2="0.498" xlink:href="#linear-gradient"/>
    <linearGradient id="linear-gradient-3" x1="0" y1="0.5" x2="1" y2="0.5" xlink:href="#linear-gradient"/>
    <linearGradient id="linear-gradient-4" x1="0" y1="0.499" x2="1" y2="0.499" xlink:href="#linear-gradient"/>
    <linearGradient id="linear-gradient-5" x1="0" y1="0.501" x2="1" y2="0.501" xlink:href="#linear-gradient"/>
    <linearGradient id="linear-gradient-6" x1="0" y1="0.501" x2="1" y2="0.501" xlink:href="#linear-gradient"/>
    <linearGradient id="linear-gradient-7" x1="0" y1="0.5" x2="1" y2="0.5" xlink:href="#linear-gradient"/>
    <linearGradient id="linear-gradient-9" x1="0" y1="0.5" x2="1" y2="0.5" xlink:href="#linear-gradient"/>
    <linearGradient id="linear-gradient-10" x1="0" y1="0.5" x2="1" y2="0.5" xlink:href="#linear-gradient"/>
    <linearGradient id="linear-gradient-11" x1="0" y1="0.5" x2="1" y2="0.5" xlink:href="#linear-gradient"/>
    <linearGradient id="linear-gradient-12" x1="0" y1="0.5" x2="1" y2="0.5" xlink:href="#linear-gradient"/>
    <linearGradient id="linear-gradient-13" x1="-0.001" y1="0.5" x2="1" y2="0.5" xlink:href="#linear-gradient"/>
    <linearGradient id="linear-gradient-14" x1="0" y1="0.5" x2="1" y2="0.5" xlink:href="#linear-gradient"/>
    <linearGradient id="linear-gradient-15" x1="-0.001" y1="0.5" x2="1" y2="0.5" xlink:href="#linear-gradient"/>
    <linearGradient id="linear-gradient-16" x1="0" y1="0.5" x2="1" y2="0.5" xlink:href="#linear-gradient"/>
    <linearGradient id="linear-gradient-17" x1="-0.001" y1="0.5" x2="1" y2="0.5" xlink:href="#linear-gradient"/>
    <linearGradient id="linear-gradient-21" x1="0" y1="0.5" x2="1" y2="0.5" xlink:href="#linear-gradient"/>
    <linearGradient id="linear-gradient-22" x1="-0.009" y1="0.499" x2="1.009" y2="0.499" xlink:href="#linear-gradient"/>
    <linearGradient id="linear-gradient-23" x1="0" y1="0.5" x2="0.998" y2="0.5" xlink:href="#linear-gradient"/>
  </defs>
  <g id="Illustration" transform="translate(-327.398 -83.901)">
    <path id="Path_1296" data-name="Path 1296" d="M517.49,111.746c28.664,38.681,128.121-4.292,127.069,67.024-1.225,83.5-43.109,125.265-20.2,189.205C645.721,427.616,573.933,470,446.731,468.761s-331.8-74.894-282.508-154.9,16.451-84.1,14.048-119.46S200.8,81.5,299.315,146.166,444.912,13.8,517.49,111.746Z" transform="translate(170.689 0)" fill="#e8fff9"/>
    <g id="Ellipse_80" data-name="Ellipse 80" transform="translate(327.697 455.935)" fill="#177b7b" stroke="#707070" stroke-width="1">
      <ellipse cx="258.171" cy="5.422" rx="258.171" ry="5.422" stroke="none"/>
      <ellipse cx="258.171" cy="5.422" rx="257.671" ry="4.922" fill="none"/>
    </g>
    <g id="Group_1161" data-name="Group 1161" transform="translate(666.054 151.422)" opacity="0.64">
      <path id="Path_1300" data-name="Path 1300" d="M1626.521,547H1589.07a4.258,4.258,0,1,0,0,8.513h37.451a4.258,4.258,0,1,0,0-8.513Z" transform="translate(-1584.706 -546.99)" fill="#2cc29b"/>
      <path id="Path_1301" data-name="Path 1301" d="M1844.39,547h-37.451a4.258,4.258,0,1,0,0,8.513h37.451a4.258,4.258,0,1,0,0-8.513Z" transform="translate(-1745.457 -546.99)" fill="#2cc29b"/>
      <path id="Path_1302" data-name="Path 1302" d="M2024.81,555.489h37.451a4.258,4.258,0,1,0,0-8.513H2024.81a4.258,4.258,0,1,0,0,8.513Z" transform="translate(-1906.208 -546.975)" fill="#2cc29b"/>
      <rect id="Rectangle_698" data-name="Rectangle 698" width="45.966" height="33.579" rx="16.24" transform="translate(0.106 13.244)" fill="#2cc29b"/>
      <rect id="Rectangle_699" data-name="Rectangle 699" width="45.966" height="33.579" rx="16.24" transform="translate(57.225 13.244)" fill="#2cc29b"/>
      <rect id="Rectangle_700" data-name="Rectangle 700" width="45.966" height="33.579" rx="16.24" transform="translate(114.344 13.244)" fill="#2cc29b"/>
    </g>
    <g id="Group_1162" data-name="Group 1162" transform="translate(372.208 122.709)">
      <g id="Group_1162-2" data-name="Group 1162" transform="translate(0 31.842)" opacity="0.91">
        <path id="Path_1307" data-name="Path 1307" d="M503.322,353.837c27.714,17.956,184.722,129.048,106.936,295.1,0,0-122.189-46.527-111.249-292.893a2.792,2.792,0,0,1,4.313-2.21Z" transform="translate(-498.316 -353.385)" fill="#2cc29b"/>
        <path id="Path_1308" data-name="Path 1308" d="M559.283,473.223s8.914,13.077,21.5,33.2l4.887,7.865,5.186,8.447c3.518,5.82,7.212,11.965,10.943,18.375s7.553,13.059,11.373,19.846l5.694,10.293c1.867,3.471,3.778,6.934,5.621,10.44s3.712,6.989,5.505,10.505q1.353,2.622,2.7,5.243c.894,1.746,1.754,3.5,2.622,5.243l2.59,5.212,2.5,5.191c1.678,3.432,3.254,6.861,4.813,10.225,3.115,6.738,5.993,13.316,8.617,19.6s4.981,12.275,7.029,17.859c1.067,2.774,1.974,5.477,2.858,8.041q.661,1.919,1.29,3.744c.4,1.219.76,2.415,1.125,3.566.708,2.312,1.421,4.457,1.99,6.476s1.07,3.872,1.534,5.545q.344,1.259.65,2.378c.176.755.343,1.46.5,2.118.309,1.311.572,2.433.786,3.34.427,1.812.653,2.779.653,2.779a1.068,1.068,0,0,1-2.079.49h0V699.2l-.658-2.75c-.207-.9-.461-2.006-.763-3.309l-.482-2.1c-.2-.739-.409-1.529-.635-2.36-.451-1.662-.949-3.5-1.492-5.506s-1.253-4.14-1.945-6.439c-.357-1.146-.705-2.336-1.1-3.547s-.831-2.454-1.264-3.731c-.865-2.551-1.754-5.243-2.805-8.012-2.005-5.566-4.334-11.535-6.911-17.828s-5.422-12.846-8.5-19.579c-1.539-3.366-3.094-6.8-4.753-10.225l-2.47-5.191-2.559-5.215c-.863-1.741-1.712-3.5-2.6-5.243s-1.775-3.5-2.663-5.243c-1.765-3.518-3.618-7.008-5.437-10.516s-3.715-6.974-5.561-10.45q-2.834-5.188-5.637-10.308c-3.783-6.8-7.543-13.47-11.273-19.88s-7.359-12.584-10.846-18.41l-5.12-8.471q-2.493-4.1-4.834-7.886c-3.122-5.039-6.009-9.645-8.6-13.706s-4.863-7.6-6.746-10.487c-3.775-5.8-5.985-9.071-5.985-9.071a.454.454,0,0,1,.75-.509Z" transform="translate(-542.697 -441.677)" fill="#e8fff9"/>
      </g>
      <path id="Path_1313" data-name="Path 1313" d="M1728.25,535.715a1.369,1.369,0,0,0-2.653,0c-3.209,13.371-12.718,48.129-28.666,66.992-25.955,30.713-42.165,79.6-23.857,103.916C1673.06,706.636,1766.576,685.744,1728.25,535.715Z" transform="translate(-1359.313 -455.309)" fill="#177b7b"/>
      <path id="Path_1314" data-name="Path 1314" d="M1763.586,610.234l-.029.417c-.029.281-.071.695-.126,1.237-.118,1.064-.307,2.622-.582,4.6-.561,3.951-1.418,9.585-2.677,16.307-.645,3.356-1.355,6.992-2.184,10.822s-1.736,7.865-2.742,12.015-2.145,8.426-3.371,12.744l-.918,3.254q-.485,1.623-.968,3.259c-.632,2.184-1.334,4.355-2.011,6.533s-1.418,4.336-2.139,6.491q-1.146,3.214-2.281,6.389c-.8,2.1-1.573,4.195-2.38,6.237s-1.6,4.074-2.457,6.03c-1.66,3.932-3.348,7.723-5.076,11.247s-3.442,6.816-5.078,9.824l-2.43,4.273c-.787,1.345-1.6,2.59-2.323,3.775-.37.59-.724,1.161-1.07,1.712l-1.048,1.573-1.835,2.745c-1.143,1.636-2.1,2.884-2.735,3.744s-.975,1.311-.975,1.311a.266.266,0,0,1-.435-.307h0l.917-1.35c.593-.886,1.494-2.163,2.588-3.82l1.754-2.784,1-1.573c.328-.558.663-1.138,1.012-1.736.692-1.2,1.445-2.462,2.2-3.815l2.336-4.289c1.573-3.02,3.238-6.31,4.871-9.855s3.3-7.3,4.929-11.237c.839-1.953,1.591-3.985,2.409-6.03s1.544-4.129,2.331-6.221c.739-2.1,1.484-4.237,2.234-6.371.7-2.15,1.463-4.289,2.145-6.457s1.4-4.323,2.037-6.494l.983-3.24q.464-1.623.931-3.235c1.243-4.3,2.36-8.557,3.424-12.684s2.04-8.127,2.9-11.939,1.652-7.419,2.36-10.749,1.311-6.4,1.8-9.131.925-5.1,1.256-7.066.577-3.505.726-4.559c.071-.524.126-.915.162-1.182s.042-.414.042-.414V610.2a.263.263,0,1,1,.524.044Z" transform="translate(-1396.516 -510.852)" fill="#e8fff9"/>
      <path id="Path_1315" data-name="Path 1315" d="M864.778,384.61h182.3a18.876,18.876,0,0,1,18.876,17.927l13.454,264.306a13.924,13.924,0,0,1-13.656,14.632l-208.949,3.8A13.221,13.221,0,0,1,843.34,672.05v-266a21.438,21.438,0,0,1,21.438-21.438Z" transform="translate(-752.885 -344.581)" fill="#177b7b"/>
      <path id="Path_1316" data-name="Path 1316" d="M905.469,1372.181h0l-23.375-.3a14.419,14.419,0,0,1-14.178-14.362v-35.3a.5.5,0,1,1,1,0v35.3a13.415,13.415,0,0,0,13.193,13.371l23.378.3a.5.5,0,0,1,0,1Z" transform="translate(-771.017 -1035.981)" fill="url(#linear-gradient)"/>
      <path id="Path_1317" data-name="Path 1317" d="M868.378,1265.119a.5.5,0,0,1-.5-.5V1258.9a.5.5,0,0,1,1,0v5.713a.5.5,0,0,1-.5.5Z" transform="translate(-770.991 -989.318)" fill="url(#linear-gradient-2)"/>
      <path id="Path_1318" data-name="Path 1318" d="M907.37,376.282c24.906,3.377,110.5,13.816,181.285,8.389a5.768,5.768,0,0,1,6.2,5.43l14.11,265.486a6.63,6.63,0,0,1-6.227,6.969c-29.767,1.762-152.365,8.57-196.1,3.99a5.243,5.243,0,0,1-4.7-5.2L900.31,382.493a6.226,6.226,0,0,1,7.06-6.211Z" transform="translate(-794.919 -338.395)" fill="#2cc29b"/>
      <path id="Path_1319" data-name="Path 1319" d="M918.3,402.559c23.957,3.248,106.341,13.3,174.456,8.067a5.542,5.542,0,0,1,5.967,5.228L1112.3,671.341a6.376,6.376,0,0,1-5.99,6.706c-28.647,1.694-146.626,8.248-188.71,3.841a5.052,5.052,0,0,1-4.52-5L911.51,408.537a5.993,5.993,0,0,1,6.793-5.977Z" transform="translate(-803.183 -357.785)" fill="#fff"/>
      <path id="Path_1320" data-name="Path 1320" d="M996.079,489.737l2.543,54.773a3.482,3.482,0,0,0,3.379,3.322c10.143.288,41.753,1.049,59.6.128a3.891,3.891,0,0,0,3.67-3.76c.341-10.272,1.086-40.17-1.256-52.667a4.386,4.386,0,0,0-4.166-3.571l-59.958-2.1a3.7,3.7,0,0,0-3.815,3.872Z" transform="translate(-865.577 -419.289)" fill="url(#linear-gradient-3)"/>
      <circle id="Ellipse_79" data-name="Ellipse 79" cx="11.774" cy="11.774" r="11.774" transform="translate(151.886 100.283) rotate(-82.98)" fill="#3cc7a3"/>
      <path id="Path_1321" data-name="Path 1321" d="M1050.926,660.847h37.511a2.9,2.9,0,0,0,2.441-4.478c-3.188-4.981-9.855-12.322-21.4-11.981a26.147,26.147,0,0,0-21.036,11.68,3.036,3.036,0,0,0,2.485,4.779Z" transform="translate(-903.808 -536.245)" fill="#3cc7a3"/>
      <path id="Path_1322" data-name="Path 1322" d="M1378.793,505.025a1.017,1.017,0,0,0,1.02-1.049l-.047-1.573a1.114,1.114,0,0,0-1.078-1.067l-67.926-1.211a.682.682,0,0,0-.7.97l1.049,2.944a1.586,1.586,0,0,0,1.395.991Z" transform="translate(-1097.198 -429.808)" fill="url(#linear-gradient-4)"/>
      <path id="Path_1323" data-name="Path 1323" d="M1310.763,539.055a.682.682,0,0,0-.7.97l1.049,2.944a1.573,1.573,0,0,0,1.395.988h66.3a1.014,1.014,0,0,0,1.02-1.049l-.047-1.573a1.114,1.114,0,0,0-1.077-1.067Z" transform="translate(-1097.198 -458.532)" fill="url(#linear-gradient-5)"/>
      <path id="Path_1324" data-name="Path 1324" d="M1310.763,578.565a.682.682,0,0,0-.7.97l1.049,2.947a1.589,1.589,0,0,0,1.395.988h66.3a1.017,1.017,0,0,0,1.02-1.049l-.047-1.573a1.114,1.114,0,0,0-1.077-1.067Z" transform="translate(-1097.198 -487.683)" fill="url(#linear-gradient-6)"/>
      <path id="Path_1325" data-name="Path 1325" d="M1154.819,774.016a.973.973,0,0,0,.98-1.049l-.1-1.573a1.148,1.148,0,0,0-1.117-1.049L998.364,769.1c-.577,0-.755.362-.4.813l2.622,3.282a2.47,2.47,0,0,0,1.7.821Z" transform="translate(-866.837 -628.269)" fill="url(#linear-gradient-7)"/>
      <path id="Path_1326" data-name="Path 1326" d="M998.364,808.05c-.577,0-.755.362-.4.813l2.622,3.282a2.47,2.47,0,0,0,1.7.82h152.53a.972.972,0,0,0,.981-1.049l-.1-1.573a1.149,1.149,0,0,0-1.117-1.049Z" transform="translate(-866.837 -657.008)" fill="url(#linear-gradient-7)"/>
      <path id="Path_1327" data-name="Path 1327" d="M995.1,871.8c3.7-.286,10.639-.417,14.459-.469a3.453,3.453,0,0,1,3.408,2.645,56.24,56.24,0,0,1,1.625,13.979,3.07,3.07,0,0,1-3.1,3.007l-14.089-.152a3.382,3.382,0,0,1-3.332-3.067l-1.237-13.253a2.464,2.464,0,0,1,2.265-2.69Z" transform="translate(-863.182 -703.697)" fill="url(#linear-gradient-9)"/>
      <path id="Path_1328" data-name="Path 1328" d="M1094.19,893.691a.836.836,0,0,0-.894.994l.666,4.423a1.259,1.259,0,0,0,1.2,1.036h36.392a1.049,1.049,0,0,0,1.049-1.049l-.034-2.75a1.125,1.125,0,0,0-1.049-1.093Z" transform="translate(-937.299 -720.194)" fill="url(#linear-gradient-10)"/>
      <path id="Path_1329" data-name="Path 1329" d="M1287.85,871.8c3.7-.286,10.639-.417,14.456-.469a3.458,3.458,0,0,1,3.408,2.645,56.363,56.363,0,0,1,1.625,13.979,3.07,3.07,0,0,1-3.1,3.007l-14.089-.152a3.382,3.382,0,0,1-3.332-3.067l-1.24-13.253a2.467,2.467,0,0,1,2.27-2.69Z" transform="translate(-1079.175 -703.697)" fill="url(#linear-gradient-11)"/>
      <path id="Path_1330" data-name="Path 1330" d="M1386.946,893.691a.834.834,0,0,0-.891.994l.663,4.423a1.261,1.261,0,0,0,1.206,1.036h36.381a1.049,1.049,0,0,0,1.049-1.049l-.037-2.75a1.119,1.119,0,0,0-1.049-1.093Z" transform="translate(-1153.305 -720.194)" fill="url(#linear-gradient-12)"/>
      <path id="Path_1331" data-name="Path 1331" d="M1027.358,1023.591h-.034l-13-.123a3.507,3.507,0,0,1-3.565-2.973l-1.143-10.909a2.36,2.36,0,0,1,.558-1.783,2.855,2.855,0,0,1,1.99-.98h0c1.1-.076,2.637-.207,4.271-.346,3.44-.294,7.718-.656,10.125-.687a3.643,3.643,0,0,1,3.641,2.546c.676,2.5.616,7.244.488,12.293A3.212,3.212,0,0,1,1027.358,1023.591Zm-15.127-15.772a1.851,1.851,0,0,0-1.292.627,1.382,1.382,0,0,0-.33,1.049l1.143,10.909a2.5,2.5,0,0,0,2.582,2.079l13,.123h.026a2.215,2.215,0,0,0,2.331-1.987c.126-4.981.186-9.635-.456-12.007a2.681,2.681,0,0,0-2.664-1.809c-2.359.029-6.63.391-10.054.684-1.636.139-3.183.262-4.286.346Z" transform="translate(-875.558 -802.907)" fill="#fff"/>
      <path id="Path_1332" data-name="Path 1332" d="M1020.281,1015.5c2.729-.186,8.652-.786,11.48-.823a2.516,2.516,0,0,1,2.519,1.741c.543,2.008.472,6.012.378,9.7a2.168,2.168,0,0,1-2.286,1.979l-10.39-.1a2.389,2.389,0,0,1-2.457-2.019l-.912-8.717A1.675,1.675,0,0,1,1020.281,1015.5Z" transform="translate(-882.2 -809.465)" fill="url(#linear-gradient-13)"/>
      <path id="Path_1333" data-name="Path 1333" d="M1120.589,1034.66a3.23,3.23,0,0,0,3.146,2.407l120.284-1.025a2.443,2.443,0,0,0,0-4.884l-120.286-.548a3.227,3.227,0,0,0-3.143,4.051Z" transform="translate(-957.369 -821.219)" fill="url(#linear-gradient-14)"/>
      <path id="Path_1334" data-name="Path 1334" d="M1024.2,998.233h0a2,2,0,0,1,2.753.747l2.564,4.6a.64.64,0,0,0,1.143-.05l6.36-14.157a.71.71,0,0,1,1.358.307,27.98,27.98,0,0,1-8.127,19.456s-3.815-1.484-6.885-8.227A2.1,2.1,0,0,1,1024.2,998.233Z" transform="translate(-885.572 -790.484)" fill="#3cc7a3"/>
      <path id="Path_1335" data-name="Path 1335" d="M1027.358,1129.9h-.034l-13-.126a3.494,3.494,0,0,1-3.565-2.97l-1.143-10.909a2.359,2.359,0,0,1,.559-1.783,2.854,2.854,0,0,1,1.99-.98h0c1.1-.076,2.637-.207,4.271-.346,3.44-.294,7.718-.658,10.125-.687h.052a3.638,3.638,0,0,1,3.589,2.546c.676,2.5.616,7.244.488,12.293A3.217,3.217,0,0,1,1027.358,1129.9Zm-15.127-15.772a1.835,1.835,0,0,0-1.292.627,1.377,1.377,0,0,0-.33,1.049l1.143,10.909a2.5,2.5,0,0,0,2.582,2.079l13,.123h.026a2.215,2.215,0,0,0,2.331-1.99c.126-4.981.186-9.632-.456-12.007a2.674,2.674,0,0,0-2.664-1.806c-2.359.029-6.63.391-10.054.682-1.636.142-3.183.262-4.286.349Z" transform="translate(-875.558 -881.345)" fill="#fff"/>
      <path id="Path_1336" data-name="Path 1336" d="M1020.281,1121.782c2.729-.186,8.652-.787,11.48-.823a2.517,2.517,0,0,1,2.519,1.738c.543,2.011.472,6.014.378,9.7a2.164,2.164,0,0,1-2.286,1.977l-10.39-.1a2.389,2.389,0,0,1-2.457-2.016l-.912-8.717A1.673,1.673,0,0,1,1020.281,1121.782Z" transform="translate(-882.2 -887.882)" fill="url(#linear-gradient-15)"/>
      <path id="Path_1337" data-name="Path 1337" d="M1120.589,1140.94a3.225,3.225,0,0,0,3.146,2.4l120.284-1.025a2.441,2.441,0,0,0,0-4.882l-120.286-.548a3.227,3.227,0,0,0-3.143,4.051Z" transform="translate(-957.369 -899.636)" fill="url(#linear-gradient-16)"/>
      <path id="Path_1338" data-name="Path 1338" d="M1024.2,1104.513h0a2,2,0,0,1,2.753.747l2.564,4.6a.64.64,0,0,0,1.143-.047l6.36-14.157a.71.71,0,0,1,1.358.307,27.969,27.969,0,0,1-8.127,19.453s-3.814-1.481-6.885-8.224A2.1,2.1,0,0,1,1024.2,1104.513Z" transform="translate(-885.572 -868.901)" fill="#3cc7a3"/>
      <path id="Path_1339" data-name="Path 1339" d="M1027.359,1236.151h-.034l-13-.126a3.494,3.494,0,0,1-3.565-2.97l-1.143-10.909a2.36,2.36,0,0,1,.561-1.783,2.859,2.859,0,0,1,1.987-.983h0c1.1-.073,2.637-.2,4.271-.344,3.44-.294,7.718-.658,10.125-.687h.053a3.637,3.637,0,0,1,3.589,2.548c.676,2.5.616,7.244.488,12.293A3.214,3.214,0,0,1,1027.359,1236.151Zm-15.127-15.775a1.853,1.853,0,0,0-1.292.629,1.376,1.376,0,0,0-.33,1.049l1.143,10.909a2.494,2.494,0,0,0,2.582,2.076l13,.126h.026a2.217,2.217,0,0,0,2.331-1.99c.126-4.981.186-9.632-.456-12.007a2.679,2.679,0,0,0-2.664-1.809c-2.359.031-6.63.393-10.054.684-1.636.139-3.183.262-4.286.346Z" transform="translate(-875.559 -959.74)" fill="#fff"/>
      <path id="Path_1340" data-name="Path 1340" d="M1020.281,1228.056c2.729-.186,8.652-.787,11.48-.826a2.538,2.538,0,0,1,2.519,1.741c.543,2.008.472,6.014.378,9.7a2.164,2.164,0,0,1-2.286,1.977l-10.39-.1a2.389,2.389,0,0,1-2.457-2.016l-.912-8.717A1.673,1.673,0,0,1,1020.281,1228.056Z" transform="translate(-882.2 -966.292)" fill="url(#linear-gradient-17)"/>
      <path id="Path_1341" data-name="Path 1341" d="M1120.589,1247.22a3.227,3.227,0,0,0,3.146,2.4l120.284-1.025a2.441,2.441,0,0,0,0-4.882l-120.286-.548a3.227,3.227,0,0,0-3.143,4.051Z" transform="translate(-957.369 -978.053)" fill="url(#linear-gradient-16)"/>
      <path id="Path_1342" data-name="Path 1342" d="M1024.2,1210.783h0a1.995,1.995,0,0,1,2.753.75l2.564,4.6a.64.64,0,0,0,1.143-.05l6.36-14.157a.711.711,0,0,1,1.358.307,27.968,27.968,0,0,1-8.127,19.453s-3.815-1.481-6.885-8.227A2.1,2.1,0,0,1,1024.2,1210.783Z" transform="translate(-885.575 -947.31)" fill="#3cc7a3"/>
      <path id="Path_1343" data-name="Path 1343" d="M1027.359,1342.421h-.034l-13-.123a3.494,3.494,0,0,1-3.565-2.973l-1.143-10.906a2.36,2.36,0,0,1,.561-1.783,2.849,2.849,0,0,1,1.987-.983h0c1.1-.073,2.637-.2,4.271-.344,3.44-.294,7.718-.658,10.125-.689h.053a3.637,3.637,0,0,1,3.589,2.548c.676,2.5.616,7.244.488,12.293A3.212,3.212,0,0,1,1027.359,1342.421Zm-15.127-15.772a1.854,1.854,0,0,0-1.292.629,1.374,1.374,0,0,0-.33,1.049l1.143,10.909a2.5,2.5,0,0,0,2.582,2.076l13,.126h.026a2.217,2.217,0,0,0,2.331-1.99c.126-4.981.186-9.632-.456-12.007a2.66,2.66,0,0,0-2.664-1.809c-2.359.031-6.63.393-10.054.684-1.636.139-3.183.262-4.286.346Z" transform="translate(-875.559 -1038.149)" fill="#fff"/>
      <path id="Path_1344" data-name="Path 1344" d="M1020.281,1334.336c2.729-.189,8.652-.786,11.48-.826a2.534,2.534,0,0,1,2.519,1.741c.543,2.008.472,6.014.378,9.7a2.164,2.164,0,0,1-2.286,1.979l-10.39-.1a2.389,2.389,0,0,1-2.457-2.019l-.912-8.714A1.678,1.678,0,0,1,1020.281,1334.336Z" transform="translate(-882.2 -1044.708)" fill="url(#linear-gradient-13)"/>
      <path id="Path_1345" data-name="Path 1345" d="M1120.589,1353.5h0a3.228,3.228,0,0,0,3.146,2.4l120.284-1.025a2.441,2.441,0,1,0,0-4.882l-120.286-.548a3.227,3.227,0,0,0-3.143,4.051Z" transform="translate(-957.369 -1056.469)" fill="url(#linear-gradient-16)"/>
      <path id="Path_1346" data-name="Path 1346" d="M1024.2,1317.063h0a2,2,0,0,1,2.753.75l2.564,4.6a.64.64,0,0,0,1.143-.05l6.36-14.157a.71.71,0,0,1,1.358.307,27.975,27.975,0,0,1-8.127,19.456s-3.815-1.481-6.885-8.227A2.1,2.1,0,0,1,1024.2,1317.063Z" transform="translate(-885.572 -1025.726)" fill="#3cc7a3"/>
      <path id="Path_1347" data-name="Path 1347" d="M1253.755,235.921c-6.586-4.583-12.322-4.491-16.344-3.3a8.038,8.038,0,0,0-5.71,8.452l1.738,18.973,20.685,1.835S1266.667,244.905,1253.755,235.921Zm-9.1,15.305a5.16,5.16,0,1,1,5.157-5.158,5.159,5.159,0,0,1-5.157,5.158Z" transform="translate(-1039.404 -231.927)" fill="#3cc7a3"/>
      <path id="Path_1348" data-name="Path 1348" d="M1242.71,259.915a.5.5,0,0,1-.5-.454l-.278-3.02a.5.5,0,0,1,1-.092l.262,3.023a.5.5,0,0,1-.451.54Zm-.543-5.92a.5.5,0,0,1-.5-.454l-.21-2.294a7.676,7.676,0,0,1,5.44-8.041,15.469,15.469,0,0,1,7.561-.309.5.5,0,1,1-.2.978,14.49,14.49,0,0,0-7.078.291,6.67,6.67,0,0,0-4.719,7l.21,2.294a.5.5,0,0,1-.451.543Z" transform="translate(-1046.609 -239.78)" fill="url(#linear-gradient-21)"/>
      <path id="Path_1349" data-name="Path 1349" d="M1130.75,342.715v-9.538a5.82,5.82,0,0,1,6.03-5.818l65.757,2.263a5.663,5.663,0,0,1,5.458,5.319l.551,9.176Z" transform="translate(-964.945 -302.337)" fill="#3cc7a3"/>
      <path id="Path_1350" data-name="Path 1350" d="M1215.021,338.269h-2.829a.5.5,0,0,1,0-1h2.829a.5.5,0,0,1,0,1Z" transform="translate(-1024.693 -309.652)" fill="url(#linear-gradient-22)"/>
      <path id="Path_1351" data-name="Path 1351" d="M1142.928,347.032a.5.5,0,0,1-.5-.5v-3.857a5.414,5.414,0,0,1,5.406-5.409h10.4a.5.5,0,1,1,0,1h-10.4a4.415,4.415,0,0,0-4.41,4.41v3.857a.5.5,0,0,1-.5.5Z" transform="translate(-973.563 -309.649)" fill="url(#linear-gradient-23)"/>
      <path id="Path_1352" data-name="Path 1352" d="M1034,372.63H1149a8.5,8.5,0,0,1,8.39,7.05l.1.561a7.3,7.3,0,0,1-7.191,8.547H1032.293a4.745,4.745,0,0,1-4.74-4.981l.262-5.28A6.2,6.2,0,0,1,1034,372.63Z" transform="translate(-888.799 -335.742)" fill="#177b7b"/>
    </g>
  </g>
</svg>
