<svg id="no-stopping" xmlns="http://www.w3.org/2000/svg" width="38.707" height="38.672" viewBox="0 0 38.707 38.672">
  <path id="Path_1486" data-name="Path 1486" d="M19.353.5A19.336,19.336,0,1,0,38.707,19.836,19.345,19.345,0,0,0,19.353.5ZM4.234,19.836a15.031,15.031,0,0,1,3.02-9.06L28.421,31.925A15.123,15.123,0,0,1,4.234,19.836Zm27.186,9.1L10.242,7.78A15.112,15.112,0,0,1,31.42,28.939Zm0,0" transform="translate(0 -0.5)" fill="#fff"/>
  <path id="Path_1487" data-name="Path 1487" d="M242.036.5q-.575,0-1.142.033a19.335,19.335,0,0,1,0,38.606q.567.033,1.142.033a19.336,19.336,0,1,0,0-38.672Zm0,0" transform="translate(-222.683 -0.5)" fill="#fff"/>
</svg>
