<svg id="shop" xmlns="http://www.w3.org/2000/svg" width="37.813" height="33.015" viewBox="0 0 37.813 33.015">
  <g id="Group_960" data-name="Group 960" transform="translate(0)">
    <path id="Path_1145" data-name="Path 1145" d="M255.888,263.75H250.75a2.552,2.552,0,0,0-2.55,2.55v3.94a2.552,2.552,0,0,0,2.55,2.55h5.138a2.552,2.552,0,0,0,2.55-2.55V266.3A2.552,2.552,0,0,0,255.888,263.75Zm.7,6.49a.7.7,0,0,1-.7.7H250.75a.7.7,0,0,1-.7-.7V266.3a.7.7,0,0,1,.7-.7h5.138a.7.7,0,0,1,.7.7Z" transform="translate(-229.023 -245.771)" fill="#2cc29b"/>
    <path id="Path_1146" data-name="Path 1146" d="M37.813,41.867a.861.861,0,0,0-.124-.456l-5.625-9.89a.932.932,0,0,0-.8-.471H6.544a.916.916,0,0,0-.8.471L.124,41.411A.937.937,0,0,0,0,41.867a5.424,5.424,0,0,0,3.245,4.96v16.31a.93.93,0,0,0,.927.927H33.633a.93.93,0,0,0,.927-.927V46.943a.408.408,0,0,0-.008-.1A5.439,5.439,0,0,0,37.813,41.867ZM7.085,32.912H30.72l4.4,7.734H2.7Zm19.826,9.581a3.563,3.563,0,0,1-7.016,0Zm-8.986,0a3.568,3.568,0,0,1-7.023,0Zm-16.009,0H8.939a3.568,3.568,0,0,1-7.023,0ZM15.576,62.21H10.245V52.2a1.321,1.321,0,0,1,1.321-1.321h2.7A1.321,1.321,0,0,1,15.584,52.2V62.21Zm17.129,0H17.431V52.2a3.18,3.18,0,0,0-3.176-3.176h-2.7A3.18,3.18,0,0,0,8.383,52.2V62.218H5.1V47.283c.108.008.216.008.325.008a5.417,5.417,0,0,0,4.5-2.4,5.419,5.419,0,0,0,8.994,0,5.4,5.4,0,0,0,8.978,0,5.417,5.417,0,0,0,4.5,2.4c.108,0,.209-.008.317-.008V62.21Zm-.317-16.774A3.562,3.562,0,0,1,28.881,42.5H35.9A3.583,3.583,0,0,1,32.389,45.436Z" transform="translate(0 -31.05)" fill="#2cc29b"/>
  </g>
</svg>
